{
  "titleTextMapHash": 1741125511,
  
  "id": 71016,
  "ICLLDPJFIMA": 0,
  "NCLEJIILEGL": 0,
  "type": "WQ",
  "COHOCGBOCFH": "MAINQUEST_TAG_NONE",
  "PIMPBFFBLNL": "PLAY_MODE_SINGLE",
  "NFEGGFJPMJI": "",
  "desc": "",
  "_luaPath": "Actor/Quest/WQ71016",
  "recommendLevel": 0,
  "repeatable": false,
  "PEOHODAKLNO": [],
  "FEHAEKNGFBP": false,
  "rewardIdList": [171016],
  "showType": "QUEST_HIDDEN",
  "HKNKBANBJPP": [],
  "LACEJNKJBCG": [],
  "OFCKAEDMIFA": 0,
  "chapterId": 0,
  "taskId": 0,
  "FCPJIFCLDFI": false,
  "activityId": 0,
  "subQuests": [
    {
      "HDBBFJKKGOM": false,
      "subId": 7101601,
      "mainId": 71016,
      "order": 1,
      "subIdSet": 0,
      "isMpBlock": false,
      "desc": "",
      "LBPMFJBNGGG": "",
      "AGIIGKJNLIG": "",
      "showType": "QUEST_HIDDEN",
      "ACEKFDIJKGJ": "BAN_GROUP_INVALID",
      "finishCond": [
        {
          "type": "QUEST_CONTENT_OBTAIN_ITEM",
          "param": [100530, 0],
          "count": 1
        },
        {
          "type": "QUEST_CONTENT_OBTAIN_ITEM",
          "param": [100531, 0],
          "count": 1
        },
        {
          "type": "QUEST_CONTENT_OBTAIN_ITEM",
          "param": [100532, 0],
          "count": 1
        }
      ],
      "failCond": [],
      "guide": {
        "type": "QUEST_GUIDE_NONE",
        "autoGuide": "QUEST_GUIDE_AUTO_NONE",
        "param": [],
        "guideScene": 0,
        "guideStyle": "QUEST_GUIDE_STYLE_NONE",
        "guideLayer": "QUEST_GUIDE_LAYER_NONE"
      },
      "showGuide": "QUEST_GUIDE_ITEM_ENABLE",
      "LPNIEFEBKGK": {
        "type": "QUEST_GUIDE_HINT_NONE",
        "param1": ""
      },
      "NKDLEHHCADL": false,
      "HKLAHKJAHJC": false,
      "failParentShow": "QUEST_SHOW",
      "EFIFPBKMMAA": false,
      "finishExec": [],
      "failExec": [],
      "LKPOHELCGKA": "",
      "PBFCIDGHHHE": ""
    },
    {
      "HDBBFJKKGOM": false,
      "subId": 7101602,
      "mainId": 71016,
      "order": 2,
      "subIdSet": 0,
      "isMpBlock": false,
      "desc": "",
      "LBPMFJBNGGG": "",
      "AGIIGKJNLIG": "",
      "showType": "QUEST_HIDDEN",
      "ACEKFDIJKGJ": "BAN_GROUP_INVALID",
      "finishCond": [
        {
          "type": "QUEST_CONTENT_COMPLETE_TALK",
          "param": [7101602, 0],
          "count": 0
        }
      ],
      "failCond": [],
      "guide": {
        "type": "QUEST_GUIDE_NONE",
        "autoGuide": "QUEST_GUIDE_AUTO_NONE",
        "param": [],
        "guideScene": 0,
        "guideStyle": "QUEST_GUIDE_STYLE_NONE",
        "guideLayer": "QUEST_GUIDE_LAYER_NONE"
      },
      "showGuide": "QUEST_GUIDE_ITEM_ENABLE",
      "LPNIEFEBKGK": {
        "type": "QUEST_GUIDE_HINT_NONE",
        "param1": ""
      },
      "NKDLEHHCADL": false,
      "HKLAHKJAHJC": false,
      "failParentShow": "QUEST_SHOW",
      "EFIFPBKMMAA": false,
      "finishExec": [],
      "failExec": [],
      "LKPOHELCGKA": "",
      "PBFCIDGHHHE": ""
    },
    {
      "HDBBFJKKGOM": false,
      "subId": 7101603,
      "mainId": 71016,
      "order": 3,
      "subIdSet": 0,
      "isMpBlock": false,
      "desc": "",
      "LBPMFJBNGGG": "",
      "AGIIGKJNLIG": "",
      "showType": "QUEST_HIDDEN",
      "ACEKFDIJKGJ": "BAN_GROUP_INVALID",
      "finishCond": [
        {
          "type": "QUEST_CONTENT_COMPLETE_TALK",
          "param": [7101605, 0],
          "count": 0
        }
      ],
      "failCond": [],
      "guide": {
        "type": "QUEST_GUIDE_NONE",
        "autoGuide": "QUEST_GUIDE_AUTO_NONE",
        "param": [],
        "guideScene": 0,
        "guideStyle": "QUEST_GUIDE_STYLE_NONE",
        "guideLayer": "QUEST_GUIDE_LAYER_NONE"
      },
      "showGuide": "QUEST_GUIDE_ITEM_ENABLE",
      "LPNIEFEBKGK": {
        "type": "QUEST_GUIDE_HINT_NONE",
        "param1": ""
      },
      "NKDLEHHCADL": false,
      "HKLAHKJAHJC": false,
      "failParentShow": "QUEST_SHOW",
      "EFIFPBKMMAA": false,
      "finishExec": [],
      "failExec": [],
      "LKPOHELCGKA": "",
      "PBFCIDGHHHE": ""
    },
    {
      "HDBBFJKKGOM": false,
      "subId": 7101604,
      "mainId": 71016,
      "order": 4,
      "subIdSet": 0,
      "isMpBlock": false,
      "desc": "",
      "LBPMFJBNGGG": "",
      "AGIIGKJNLIG": "",
      "showType": "QUEST_HIDDEN",
      "ACEKFDIJKGJ": "BAN_GROUP_INVALID",
      "finishCond": [
        {
          "type": "QUEST_CONTENT_OBTAIN_ITEM",
          "param": [100530, 0],
          "count": 1
        },
        {
          "type": "QUEST_CONTENT_OBTAIN_ITEM",
          "param": [100531, 0],
          "count": 1
        },
        {
          "type": "QUEST_CONTENT_OBTAIN_ITEM",
          "param": [100532, 0],
          "count": 1
        }
      ],
      "failCond": [],
      "guide": {
        "type": "QUEST_GUIDE_NONE",
        "autoGuide": "QUEST_GUIDE_AUTO_NONE",
        "param": [],
        "guideScene": 0,
        "guideStyle": "QUEST_GUIDE_STYLE_NONE",
        "guideLayer": "QUEST_GUIDE_LAYER_NONE"
      },
      "showGuide": "QUEST_GUIDE_ITEM_ENABLE",
      "LPNIEFEBKGK": {
        "type": "QUEST_GUIDE_HINT_NONE",
        "param1": ""
      },
      "NKDLEHHCADL": false,
      "HKLAHKJAHJC": false,
      "failParentShow": "QUEST_SHOW",
      "EFIFPBKMMAA": false,
      "finishExec": [],
      "failExec": [],
      "LKPOHELCGKA": "",
      "PBFCIDGHHHE": ""
    },
    {
      "HDBBFJKKGOM": false,
      "subId": 7101605,
      "mainId": 71016,
      "order": 6,
      "subIdSet": 0,
      "isMpBlock": false,
      "desc": "",
      "LBPMFJBNGGG": "",
      "AGIIGKJNLIG": "",
      "showType": "QUEST_HIDDEN",
      "ACEKFDIJKGJ": "BAN_GROUP_INVALID",
      "finishCond": [
        {
          "type": "QUEST_CONTENT_COMPLETE_TALK",
          "param": [7101605, 0],
          "count": 0
        }
      ],
      "failCond": [],
      "guide": {
        "type": "QUEST_GUIDE_NONE",
        "autoGuide": "QUEST_GUIDE_AUTO_NONE",
        "param": [],
        "guideScene": 0,
        "guideStyle": "QUEST_GUIDE_STYLE_NONE",
        "guideLayer": "QUEST_GUIDE_LAYER_NONE"
      },
      "showGuide": "QUEST_GUIDE_ITEM_ENABLE",
      "LPNIEFEBKGK": {
        "type": "QUEST_GUIDE_HINT_NONE",
        "param1": ""
      },
      "NKDLEHHCADL": true,
      "HKLAHKJAHJC": false,
      "failParentShow": "QUEST_SHOW",
      "EFIFPBKMMAA": true,
      "finishExec": [
        {
          "type": "QUEST_EXEC_DEL_PACK_ITEM",
          "param": ["100530", "1"]
        },
        {
          "type": "QUEST_EXEC_DEL_PACK_ITEM",
          "param": ["100531", "1"]
        },
        {
          "type": "QUEST_EXEC_DEL_PACK_ITEM",
          "param": ["100532", "1"]
        }
      ],
      "failExec": [],
      "LKPOHELCGKA": "",
      "PBFCIDGHHHE": ""
    },
    {
      "HDBBFJKKGOM": false,
      "subId": 7101606,
      "mainId": 71016,
      "order": 7,
      "subIdSet": 0,
      "isMpBlock": false,
      "desc": "",
      "LBPMFJBNGGG": "",
      "AGIIGKJNLIG": "",
      "showType": "QUEST_HIDDEN",
      "ACEKFDIJKGJ": "BAN_GROUP_INVALID",
      "finishCond": [
        {
          "type": "QUEST_CONTENT_COMPLETE_TALK",
          "param": [7101606, 0],
          "count": 0
        }
      ],
      "failCond": [],
      "guide": {
        "type": "QUEST_GUIDE_NONE",
        "autoGuide": "QUEST_GUIDE_AUTO_NONE",
        "param": [],
        "guideScene": 0,
        "guideStyle": "QUEST_GUIDE_STYLE_NONE",
        "guideLayer": "QUEST_GUIDE_LAYER_NONE"
      },
      "showGuide": "QUEST_GUIDE_ITEM_ENABLE",
      "LPNIEFEBKGK": {
        "type": "QUEST_GUIDE_HINT_NONE",
        "param1": ""
      },
      "NKDLEHHCADL": false,
      "HKLAHKJAHJC": false,
      "failParentShow": "QUEST_SHOW",
      "EFIFPBKMMAA": false,
      "finishExec": [],
      "failExec": [],
      "LKPOHELCGKA": "",
      "PBFCIDGHHHE": ""
    },
    {
      "HDBBFJKKGOM": false,
      "subId": 7101607,
      "mainId": 71016,
      "order": 5,
      "subIdSet": 0,
      "isMpBlock": false,
      "desc": "",
      "LBPMFJBNGGG": "",
      "AGIIGKJNLIG": "",
      "showType": "QUEST_HIDDEN",
      "ACEKFDIJKGJ": "BAN_GROUP_INVALID",
      "finishCond": [
        {
          "type": "QUEST_CONTENT_COMPLETE_TALK",
          "param": [7101605, 0],
          "count": 0
        }
      ],
      "failCond": [],
      "guide": {
        "type": "QUEST_GUIDE_NONE",
        "autoGuide": "QUEST_GUIDE_AUTO_NONE",
        "param": [],
        "guideScene": 0,
        "guideStyle": "QUEST_GUIDE_STYLE_NONE",
        "guideLayer": "QUEST_GUIDE_LAYER_NONE"
      },
      "showGuide": "QUEST_GUIDE_ITEM_ENABLE",
      "LPNIEFEBKGK": {
        "type": "QUEST_GUIDE_HINT_NONE",
        "param1": ""
      },
      "NKDLEHHCADL": false,
      "HKLAHKJAHJC": false,
      "failParentShow": "QUEST_SHOW",
      "EFIFPBKMMAA": true,
      "finishExec": [],
      "failExec": [],
      "LKPOHELCGKA": "",
      "PBFCIDGHHHE": ""
    },
    {
      "HDBBFJKKGOM": false,
      "subId": 7101608,
      "mainId": 71016,
      "order": 8,
      "subIdSet": 0,
      "isMpBlock": false,
      "desc": "Bỏ",
      "LBPMFJBNGGG": "",
      "AGIIGKJNLIG": "",
      "showType": "QUEST_SHOW",
      "ACEKFDIJKGJ": "BAN_GROUP_INVALID",
      "finishCond": [
        {
          "type": "QUEST_CONTENT_FINISH_ITEM_GIVING",
          "param": [7101606, 0],
          "count": 0
        },
        {
          "type": "QUEST_CONTENT_OBTAIN_ITEM",
          "param": [100532, 0],
          "count": 1
        }
      ],
      "failCond": [],
      "guide": {
        "type": "QUEST_GUIDE_NONE",
        "autoGuide": "QUEST_GUIDE_AUTO_NONE",
        "param": [],
        "guideScene": 0,
        "guideStyle": "QUEST_GUIDE_STYLE_NONE",
        "guideLayer": "QUEST_GUIDE_LAYER_NONE"
      },
      "showGuide": "QUEST_GUIDE_ITEM_ENABLE",
      "LPNIEFEBKGK": {
        "type": "QUEST_GUIDE_HINT_NONE",
        "param1": ""
      },
      "NKDLEHHCADL": false,
      "HKLAHKJAHJC": false,
      "failParentShow": "QUEST_SHOW",
      "EFIFPBKMMAA": false,
      "finishExec": [],
      "failExec": [],
      "LKPOHELCGKA": "",
      "PBFCIDGHHHE": ""
    },
    {
      "HDBBFJKKGOM": false,
      "subId": 7101609,
      "mainId": 71016,
      "order": 9,
      "subIdSet": 0,
      "isMpBlock": false,
      "desc": "Bỏ",
      "LBPMFJBNGGG": "",
      "AGIIGKJNLIG": "",
      "showType": "QUEST_SHOW",
      "ACEKFDIJKGJ": "BAN_GROUP_INVALID",
      "finishCond": [
        {
          "type": "QUEST_CONTENT_FINISH_ITEM_GIVING",
          "param": [7101607, 0],
          "count": 0
        }
      ],
      "failCond": [
        {
          "type": "QUEST_CONTENT_OBTAIN_ITEM",
          "param": [100532, 0],
          "count": 1
        }
      ],
      "guide": {
        "type": "QUEST_GUIDE_NONE",
        "autoGuide": "QUEST_GUIDE_AUTO_NONE",
        "param": [],
        "guideScene": 0,
        "guideStyle": "QUEST_GUIDE_STYLE_NONE",
        "guideLayer": "QUEST_GUIDE_LAYER_NONE"
      },
      "showGuide": "QUEST_GUIDE_ITEM_ENABLE",
      "LPNIEFEBKGK": {
        "type": "QUEST_GUIDE_HINT_NONE",
        "param1": ""
      },
      "NKDLEHHCADL": false,
      "HKLAHKJAHJC": false,
      "failParentShow": "QUEST_SHOW",
      "EFIFPBKMMAA": false,
      "finishExec": [],
      "failExec": [],
      "LKPOHELCGKA": "",
      "PBFCIDGHHHE": ""
    },
    {
      "HDBBFJKKGOM": false,
      "subId": 7101610,
      "mainId": 71016,
      "order": 10,
      "subIdSet": 0,
      "isMpBlock": false,
      "desc": "Bỏ",
      "LBPMFJBNGGG": "",
      "AGIIGKJNLIG": "",
      "showType": "QUEST_SHOW",
      "ACEKFDIJKGJ": "BAN_GROUP_INVALID",
      "finishCond": [
        {
          "type": "QUEST_CONTENT_FINISH_ITEM_GIVING",
          "param": [7101609, 0],
          "count": 0
        }
      ],
      "failCond": [
        {
          "type": "QUEST_CONTENT_OBTAIN_ITEM",
          "param": [100531, 0],
          "count": 1
        }
      ],
      "guide": {
        "type": "QUEST_GUIDE_NONE",
        "autoGuide": "QUEST_GUIDE_AUTO_NONE",
        "param": [],
        "guideScene": 0,
        "guideStyle": "QUEST_GUIDE_STYLE_NONE",
        "guideLayer": "QUEST_GUIDE_LAYER_NONE"
      },
      "showGuide": "QUEST_GUIDE_ITEM_ENABLE",
      "LPNIEFEBKGK": {
        "type": "QUEST_GUIDE_HINT_NONE",
        "param1": ""
      },
      "NKDLEHHCADL": false,
      "HKLAHKJAHJC": false,
      "failParentShow": "QUEST_SHOW",
      "EFIFPBKMMAA": false,
      "finishExec": [],
      "failExec": [],
      "LKPOHELCGKA": "",
      "PBFCIDGHHHE": ""
    },
    {
      "HDBBFJKKGOM": false,
      "subId": 7101611,
      "mainId": 71016,
      "order": 11,
      "subIdSet": 0,
      "isMpBlock": false,
      "desc": "Bỏ",
      "LBPMFJBNGGG": "",
      "AGIIGKJNLIG": "",
      "showType": "QUEST_SHOW",
      "ACEKFDIJKGJ": "BAN_GROUP_INVALID",
      "finishCond": [
        {
          "type": "QUEST_CONTENT_FINISH_ITEM_GIVING",
          "param": [7101610, 0],
          "count": 0
        }
      ],
      "failCond": [],
      "guide": {
        "type": "QUEST_GUIDE_NONE",
        "autoGuide": "QUEST_GUIDE_AUTO_NONE",
        "param": [],
        "guideScene": 0,
        "guideStyle": "QUEST_GUIDE_STYLE_NONE",
        "guideLayer": "QUEST_GUIDE_LAYER_NONE"
      },
      "showGuide": "QUEST_GUIDE_ITEM_ENABLE",
      "LPNIEFEBKGK": {
        "type": "QUEST_GUIDE_HINT_NONE",
        "param1": ""
      },
      "NKDLEHHCADL": false,
      "HKLAHKJAHJC": false,
      "failParentShow": "QUEST_SHOW",
      "EFIFPBKMMAA": false,
      "finishExec": [],
      "failExec": [],
      "LKPOHELCGKA": "",
      "PBFCIDGHHHE": ""
    },
    {
      "HDBBFJKKGOM": false,
      "subId": 7101612,
      "mainId": 71016,
      "order": 12,
      "subIdSet": 0,
      "isMpBlock": false,
      "desc": "Bỏ",
      "LBPMFJBNGGG": "",
      "AGIIGKJNLIG": "",
      "showType": "QUEST_SHOW",
      "ACEKFDIJKGJ": "BAN_GROUP_INVALID",
      "finishCond": [
        {
          "type": "QUEST_CONTENT_FINISH_ITEM_GIVING",
          "param": [7101606, 0],
          "count": 0
        }
      ],
      "failCond": [],
      "guide": {
        "type": "QUEST_GUIDE_NONE",
        "autoGuide": "QUEST_GUIDE_AUTO_NONE",
        "param": [],
        "guideScene": 0,
        "guideStyle": "QUEST_GUIDE_STYLE_NONE",
        "guideLayer": "QUEST_GUIDE_LAYER_NONE"
      },
      "showGuide": "QUEST_GUIDE_ITEM_ENABLE",
      "LPNIEFEBKGK": {
        "type": "QUEST_GUIDE_HINT_NONE",
        "param1": ""
      },
      "NKDLEHHCADL": false,
      "HKLAHKJAHJC": false,
      "failParentShow": "QUEST_SHOW",
      "EFIFPBKMMAA": false,
      "finishExec": [],
      "failExec": [],
      "LKPOHELCGKA": "",
      "PBFCIDGHHHE": ""
    },
    {
      "HDBBFJKKGOM": false,
      "subId": 7101613,
      "mainId": 71016,
      "order": 13,
      "subIdSet": 0,
      "isMpBlock": false,
      "desc": "Bỏ",
      "LBPMFJBNGGG": "",
      "AGIIGKJNLIG": "",
      "showType": "QUEST_SHOW",
      "ACEKFDIJKGJ": "BAN_GROUP_INVALID",
      "finishCond": [
        {
          "type": "QUEST_CONTENT_FINISH_ITEM_GIVING",
          "param": [7101604, 0],
          "count": 0
        }
      ],
      "failCond": [],
      "guide": {
        "type": "QUEST_GUIDE_NONE",
        "autoGuide": "QUEST_GUIDE_AUTO_NONE",
        "param": [],
        "guideScene": 0,
        "guideStyle": "QUEST_GUIDE_STYLE_NONE",
        "guideLayer": "QUEST_GUIDE_LAYER_NONE"
      },
      "showGuide": "QUEST_GUIDE_ITEM_ENABLE",
      "LPNIEFEBKGK": {
        "type": "QUEST_GUIDE_HINT_NONE",
        "param1": ""
      },
      "NKDLEHHCADL": false,
      "HKLAHKJAHJC": false,
      "failParentShow": "QUEST_SHOW",
      "EFIFPBKMMAA": false,
      "finishExec": [],
      "failExec": [],
      "LKPOHELCGKA": "",
      "PBFCIDGHHHE": ""
    },
    {
      "HDBBFJKKGOM": false,
      "subId": 7101614,
      "mainId": 71016,
      "order": 14,
      "subIdSet": 0,
      "isMpBlock": false,
      "desc": "Bỏ",
      "LBPMFJBNGGG": "",
      "AGIIGKJNLIG": "",
      "showType": "QUEST_SHOW",
      "ACEKFDIJKGJ": "BAN_GROUP_INVALID",
      "finishCond": [
        {
          "type": "QUEST_CONTENT_FINISH_ITEM_GIVING",
          "param": [7101605, 0],
          "count": 0
        }
      ],
      "failCond": [],
      "guide": {
        "type": "QUEST_GUIDE_NONE",
        "autoGuide": "QUEST_GUIDE_AUTO_NONE",
        "param": [],
        "guideScene": 0,
        "guideStyle": "QUEST_GUIDE_STYLE_NONE",
        "guideLayer": "QUEST_GUIDE_LAYER_NONE"
      },
      "showGuide": "QUEST_GUIDE_ITEM_ENABLE",
      "LPNIEFEBKGK": {
        "type": "QUEST_GUIDE_HINT_NONE",
        "param1": ""
      },
      "NKDLEHHCADL": false,
      "HKLAHKJAHJC": false,
      "failParentShow": "QUEST_SHOW",
      "EFIFPBKMMAA": false,
      "finishExec": [],
      "failExec": [],
      "LKPOHELCGKA": "",
      "PBFCIDGHHHE": ""
    },
    {
      "HDBBFJKKGOM": false,
      "subId": 7101615,
      "mainId": 71016,
      "order": 15,
      "subIdSet": 0,
      "isMpBlock": false,
      "desc": "Bỏ",
      "LBPMFJBNGGG": "",
      "AGIIGKJNLIG": "",
      "showType": "QUEST_SHOW",
      "ACEKFDIJKGJ": "BAN_GROUP_INVALID",
      "finishCond": [
        {
          "type": "QUEST_CONTENT_COMPLETE_TALK",
          "param": [7101626, 0],
          "count": 0
        }
      ],
      "failCond": [],
      "guide": {
        "type": "QUEST_GUIDE_NONE",
        "autoGuide": "QUEST_GUIDE_AUTO_NONE",
        "param": [],
        "guideScene": 0,
        "guideStyle": "QUEST_GUIDE_STYLE_NONE",
        "guideLayer": "QUEST_GUIDE_LAYER_NONE"
      },
      "showGuide": "QUEST_GUIDE_ITEM_ENABLE",
      "LPNIEFEBKGK": {
        "type": "QUEST_GUIDE_HINT_NONE",
        "param1": ""
      },
      "NKDLEHHCADL": false,
      "HKLAHKJAHJC": false,
      "failParentShow": "QUEST_SHOW",
      "EFIFPBKMMAA": false,
      "finishExec": [],
      "failExec": [],
      "LKPOHELCGKA": "",
      "PBFCIDGHHHE": ""
    },
    {
      "HDBBFJKKGOM": false,
      "subId": 7101616,
      "mainId": 71016,
      "order": 16,
      "subIdSet": 0,
      "isMpBlock": false,
      "desc": "Bỏ",
      "LBPMFJBNGGG": "",
      "AGIIGKJNLIG": "",
      "showType": "QUEST_SHOW",
      "ACEKFDIJKGJ": "BAN_GROUP_INVALID",
      "finishCond": [
        {
          "type": "QUEST_CONTENT_FINISH_ITEM_GIVING",
          "param": [7101608, 0],
          "count": 0
        }
      ],
      "failCond": [],
      "guide": {
        "type": "QUEST_GUIDE_NONE",
        "autoGuide": "QUEST_GUIDE_AUTO_NONE",
        "param": [],
        "guideScene": 0,
        "guideStyle": "QUEST_GUIDE_STYLE_NONE",
        "guideLayer": "QUEST_GUIDE_LAYER_NONE"
      },
      "showGuide": "QUEST_GUIDE_ITEM_ENABLE",
      "LPNIEFEBKGK": {
        "type": "QUEST_GUIDE_HINT_NONE",
        "param1": ""
      },
      "NKDLEHHCADL": false,
      "HKLAHKJAHJC": false,
      "failParentShow": "QUEST_SHOW",
      "EFIFPBKMMAA": false,
      "finishExec": [],
      "failExec": [],
      "LKPOHELCGKA": "",
      "PBFCIDGHHHE": ""
    },
    {
      "HDBBFJKKGOM": false,
      "subId": 7101617,
      "mainId": 71016,
      "order": 17,
      "subIdSet": 0,
      "isMpBlock": false,
      "desc": "Bỏ",
      "LBPMFJBNGGG": "",
      "AGIIGKJNLIG": "",
      "showType": "QUEST_SHOW",
      "ACEKFDIJKGJ": "BAN_GROUP_INVALID",
      "finishCond": [
        {
          "type": "QUEST_CONTENT_FINISH_ITEM_GIVING",
          "param": [7101607, 0],
          "count": 0
        }
      ],
      "failCond": [],
      "guide": {
        "type": "QUEST_GUIDE_NONE",
        "autoGuide": "QUEST_GUIDE_AUTO_NONE",
        "param": [],
        "guideScene": 0,
        "guideStyle": "QUEST_GUIDE_STYLE_NONE",
        "guideLayer": "QUEST_GUIDE_LAYER_NONE"
      },
      "showGuide": "QUEST_GUIDE_ITEM_ENABLE",
      "LPNIEFEBKGK": {
        "type": "QUEST_GUIDE_HINT_NONE",
        "param1": ""
      },
      "NKDLEHHCADL": false,
      "HKLAHKJAHJC": false,
      "failParentShow": "QUEST_SHOW",
      "EFIFPBKMMAA": false,
      "finishExec": [],
      "failExec": [],
      "LKPOHELCGKA": "",
      "PBFCIDGHHHE": ""
    },
    {
      "HDBBFJKKGOM": false,
      "subId": 7101618,
      "mainId": 71016,
      "order": 18,
      "subIdSet": 0,
      "isMpBlock": false,
      "desc": "Bỏ",
      "LBPMFJBNGGG": "",
      "AGIIGKJNLIG": "",
      "showType": "QUEST_SHOW",
      "ACEKFDIJKGJ": "BAN_GROUP_INVALID",
      "finishCond": [
        {
          "type": "QUEST_CONTENT_FINISH_ITEM_GIVING",
          "param": [7101609, 0],
          "count": 0
        }
      ],
      "failCond": [],
      "guide": {
        "type": "QUEST_GUIDE_NONE",
        "autoGuide": "QUEST_GUIDE_AUTO_NONE",
        "param": [],
        "guideScene": 0,
        "guideStyle": "QUEST_GUIDE_STYLE_NONE",
        "guideLayer": "QUEST_GUIDE_LAYER_NONE"
      },
      "showGuide": "QUEST_GUIDE_ITEM_ENABLE",
      "LPNIEFEBKGK": {
        "type": "QUEST_GUIDE_HINT_NONE",
        "param1": ""
      },
      "NKDLEHHCADL": false,
      "HKLAHKJAHJC": false,
      "failParentShow": "QUEST_SHOW",
      "EFIFPBKMMAA": false,
      "finishExec": [],
      "failExec": [],
      "LKPOHELCGKA": "",
      "PBFCIDGHHHE": ""
    },
    {
      "HDBBFJKKGOM": false,
      "subId": 7101619,
      "mainId": 71016,
      "order": 19,
      "subIdSet": 0,
      "isMpBlock": false,
      "desc": "Bỏ",
      "LBPMFJBNGGG": "",
      "AGIIGKJNLIG": "",
      "showType": "QUEST_SHOW",
      "ACEKFDIJKGJ": "BAN_GROUP_INVALID",
      "finishCond": [
        {
          "type": "QUEST_CONTENT_COMPLETE_TALK",
          "param": [710162701, 0],
          "count": 0
        }
      ],
      "failCond": [],
      "guide": {
        "type": "QUEST_GUIDE_NONE",
        "autoGuide": "QUEST_GUIDE_AUTO_NONE",
        "param": [],
        "guideScene": 0,
        "guideStyle": "QUEST_GUIDE_STYLE_NONE",
        "guideLayer": "QUEST_GUIDE_LAYER_NONE"
      },
      "showGuide": "QUEST_GUIDE_ITEM_ENABLE",
      "LPNIEFEBKGK": {
        "type": "QUEST_GUIDE_HINT_NONE",
        "param1": ""
      },
      "NKDLEHHCADL": false,
      "HKLAHKJAHJC": false,
      "failParentShow": "QUEST_SHOW",
      "EFIFPBKMMAA": false,
      "finishExec": [],
      "failExec": [],
      "LKPOHELCGKA": "",
      "PBFCIDGHHHE": ""
    }
  ],
  "talks": [
    {
      "KDHKACIEPAP": false,
      "id": 7101602,
      "EDCMHBHDAHK": "TALK_BEGIN_NONE",
      "PIMPBFFBLNL": "PLAY_MODE_ALL",
      "OBMJNLIAOPP": "LOGIC_AND",
      "acceptCond": [
        {
          "type": "QUEST_COND_STATE_EQUAL",
          "param": ["7101602", "2"]
        }
      ],
      "priority": 5,
      "GLHPILEDCIH": [7101605, 7101604],
      "OPAEHKHBKHL": [],
      "KGCBFKLPGDB": 0,
      "DOGCHABLIOA": 710160201,
      "FEGHBCNNPLB": 0,
      "npcIdRawNum": [2023],
      "GHNCIOJDIEA": "",
      "MABMOKMFNJP": "TALK_HERO_LOCAL",
      "BBNAABABCKM": "TALK_NORMAL_QUEST",
      "questId": 71016,
      "JMICBAGFMDA": [],
      "JMIFGMHBKGK": 753351496037,
      "BHPOEKFGMHB": true,
      "HGKKDMCIOGH": [],
      "MOLOPNJEPGH": "",
      "INALKPHPENP": false,
      "JMBGJBPFDJG": false,
      "FDNMFCPGFFI": false,
      "AAHFEPCHGBB": "TALK_MARK_NONE",
      "ACLCONLCKGI": false,
      "NPKDNLBININ": false,
      "finishExec": [],
      "CEAIKCLNACM": [],
      "MCFDNAFKMGJ": [],
      "LEJMLPCIBPD": [],
      "ABEPKKIBGCG": [],
      "NINNIKGFJGP": false,
      "FONNGGHHMMC": 71016,
      "EEIJODMHMMM": null,
      "EBNNFCOIECM": null,
      "POCLCIKJDPI": 0
    },
    {
      "KDHKACIEPAP": false,
      "id": 7101603,
      "EDCMHBHDAHK": "TALK_BEGIN_NONE",
      "PIMPBFFBLNL": "PLAY_MODE_ALL",
      "OBMJNLIAOPP": "LOGIC_AND",
      "acceptCond": [
        {
          "type": "QUEST_COND_STATE_EQUAL",
          "param": ["7101602", "3"]
        },
        {
          "type": "QUEST_COND_STATE_EQUAL",
          "param": ["7101603", "2"]
        }
      ],
      "priority": 5,
      "GLHPILEDCIH": [7101605, 7101604],
      "OPAEHKHBKHL": [],
      "KGCBFKLPGDB": 0,
      "DOGCHABLIOA": 710160301,
      "FEGHBCNNPLB": 0,
      "npcIdRawNum": [2023],
      "GHNCIOJDIEA": "",
      "MABMOKMFNJP": "TALK_HERO_LOCAL",
      "BBNAABABCKM": "TALK_NORMAL_QUEST",
      "questId": 71016,
      "JMICBAGFMDA": [],
      "JMIFGMHBKGK": 943933129984,
      "BHPOEKFGMHB": true,
      "HGKKDMCIOGH": [],
      "MOLOPNJEPGH": "",
      "INALKPHPENP": false,
      "JMBGJBPFDJG": false,
      "FDNMFCPGFFI": false,
      "AAHFEPCHGBB": "TALK_MARK_NONE",
      "ACLCONLCKGI": false,
      "NPKDNLBININ": false,
      "finishExec": [],
      "CEAIKCLNACM": [],
      "MCFDNAFKMGJ": [],
      "LEJMLPCIBPD": [],
      "ABEPKKIBGCG": [],
      "NINNIKGFJGP": false,
      "FONNGGHHMMC": 71016,
      "EEIJODMHMMM": null,
      "EBNNFCOIECM": null,
      "POCLCIKJDPI": 0
    },
    {
      "KDHKACIEPAP": false,
      "id": 7101604,
      "EDCMHBHDAHK": "TALK_BEGIN_NONE",
      "PIMPBFFBLNL": "PLAY_MODE_ALL",
      "OBMJNLIAOPP": "LOGIC_AND",
      "acceptCond": [
        {
          "type": "QUEST_COND_STATE_EQUAL",
          "param": ["7101602", "3"]
        },
        {
          "type": "QUEST_COND_STATE_EQUAL",
          "param": ["7101601", "2"]
        },
        {
          "type": "QUEST_COND_STATE_EQUAL",
          "param": ["7101604", "2"]
        }
      ],
      "priority": 5,
      "GLHPILEDCIH": [],
      "OPAEHKHBKHL": [],
      "KGCBFKLPGDB": 0,
      "DOGCHABLIOA": 710160401,
      "FEGHBCNNPLB": 0,
      "npcIdRawNum": [2023],
      "GHNCIOJDIEA": "",
      "MABMOKMFNJP": "TALK_HERO_LOCAL",
      "BBNAABABCKM": "TALK_NORMAL_QUEST",
      "questId": 71016,
      "JMICBAGFMDA": [],
      "JMIFGMHBKGK": 1075206405163,
      "BHPOEKFGMHB": true,
      "HGKKDMCIOGH": [],
      "MOLOPNJEPGH": "",
      "INALKPHPENP": false,
      "JMBGJBPFDJG": false,
      "FDNMFCPGFFI": false,
      "AAHFEPCHGBB": "TALK_MARK_NONE",
      "ACLCONLCKGI": false,
      "NPKDNLBININ": false,
      "finishExec": [],
      "CEAIKCLNACM": [],
      "MCFDNAFKMGJ": [],
      "LEJMLPCIBPD": [],
      "ABEPKKIBGCG": [],
      "NINNIKGFJGP": false,
      "FONNGGHHMMC": 71016,
      "EEIJODMHMMM": null,
      "EBNNFCOIECM": null,
      "POCLCIKJDPI": 0
    },
    {
      "KDHKACIEPAP": false,
      "id": 7101605,
      "EDCMHBHDAHK": "TALK_BEGIN_NONE",
      "PIMPBFFBLNL": "PLAY_MODE_ALL",
      "OBMJNLIAOPP": "LOGIC_AND",
      "acceptCond": [
        {
          "type": "QUEST_COND_STATE_EQUAL",
          "param": ["7101602", "3"]
        },
        {
          "type": "QUEST_COND_STATE_EQUAL",
          "param": ["7101601", "3"]
        },
        {
          "type": "QUEST_COND_STATE_EQUAL",
          "param": ["7101605", "2"]
        }
      ],
      "priority": 5,
      "GLHPILEDCIH": [],
      "OPAEHKHBKHL": [],
      "KGCBFKLPGDB": 0,
      "DOGCHABLIOA": 710160501,
      "FEGHBCNNPLB": 0,
      "npcIdRawNum": [2023],
      "GHNCIOJDIEA": "",
      "MABMOKMFNJP": "TALK_HERO_LOCAL",
      "BBNAABABCKM": "TALK_NORMAL_QUEST",
      "questId": 71016,
      "JMICBAGFMDA": [],
      "JMIFGMHBKGK": 1042692588281,
      "BHPOEKFGMHB": true,
      "HGKKDMCIOGH": [],
      "MOLOPNJEPGH": "",
      "INALKPHPENP": false,
      "JMBGJBPFDJG": false,
      "FDNMFCPGFFI": false,
      "AAHFEPCHGBB": "TALK_MARK_NONE",
      "ACLCONLCKGI": false,
      "NPKDNLBININ": false,
      "finishExec": [],
      "CEAIKCLNACM": [],
      "MCFDNAFKMGJ": [],
      "LEJMLPCIBPD": [],
      "ABEPKKIBGCG": [],
      "NINNIKGFJGP": false,
      "FONNGGHHMMC": 71016,
      "EEIJODMHMMM": null,
      "EBNNFCOIECM": null,
      "POCLCIKJDPI": 0
    },
    {
      "KDHKACIEPAP": false,
      "id": 7101606,
      "EDCMHBHDAHK": "TALK_BEGIN_NONE",
      "PIMPBFFBLNL": "PLAY_MODE_ALL",
      "OBMJNLIAOPP": "LOGIC_AND",
      "acceptCond": [
        {
          "type": "QUEST_COND_STATE_EQUAL",
          "param": ["7101605", "3"]
        },
        {
          "type": "QUEST_COND_STATE_EQUAL",
          "param": ["7101601", "3"]
        },
        {
          "type": "QUEST_COND_STATE_EQUAL",
          "param": ["7101606", "2"]
        }
      ],
      "priority": 5,
      "GLHPILEDCIH": [],
      "OPAEHKHBKHL": [],
      "KGCBFKLPGDB": 0,
      "DOGCHABLIOA": 710160601,
      "FEGHBCNNPLB": 0,
      "npcIdRawNum": [2023],
      "GHNCIOJDIEA": "",
      "MABMOKMFNJP": "TALK_HERO_LOCAL",
      "BBNAABABCKM": "TALK_NORMAL_QUEST",
      "questId": 71016,
      "JMICBAGFMDA": [],
      "JMIFGMHBKGK": 639732858954,
      "BHPOEKFGMHB": true,
      "HGKKDMCIOGH": [],
      "MOLOPNJEPGH": "",
      "INALKPHPENP": false,
      "JMBGJBPFDJG": false,
      "FDNMFCPGFFI": false,
      "AAHFEPCHGBB": "TALK_MARK_NONE",
      "ACLCONLCKGI": false,
      "NPKDNLBININ": false,
      "finishExec": [],
      "CEAIKCLNACM": [],
      "MCFDNAFKMGJ": [],
      "LEJMLPCIBPD": [],
      "ABEPKKIBGCG": [],
      "NINNIKGFJGP": false,
      "FONNGGHHMMC": 71016,
      "EEIJODMHMMM": null,
      "EBNNFCOIECM": null,
      "POCLCIKJDPI": 0
    }
  ],
  "LGCLJGGNGBD": [],
  "OMKMAOLMNCO": [],
  "KPOKLMBEOBI": {},
  "MGDNNNGPOGO": 171016
}
