{
  "$type": "ConfigMonster",
  "headControl": {
    "$type": "ConfigHeadControl",
    "useHeadControl": true,
    "animStates": [
      "NormalIdle/Standby",
      "NormalMove/WalkForward",
      "NormalMove/WalkBack",
      "NormalMove/WalkRight",
      "NormalMove/WalkLeft",
      "NormalMove/Run",
      "Turn/TurnLeft",
      "Turn/TurnRight"
    ]
  },
  "common": {
    "viewSize": 1.2,
    "effectAttachShape": {
      "$type": "ConfigEffectAttachSkinnedMesh",
      "mesh": "EffectMesh"
    },
    "mass": 30.0,
    "useGrassDisplacement": true,
    "affectedByWorld": true,
    "checkInSurface": true,
    "scale": 1.2,
    "height": 1.35,
    "modelHeight": 1.35,
    "clearAnimatorOnSetLightDeactive": true,
    "clearAIOnSetLightDeactive": true
  },
  "move": {
    "$type": "ConfigAnimatorMove",
    "facingMove": "FourDirection",
    "monsterSizeType": "StoopType"
  },
  "model": {
    "bornEffect": "Eff_Monster_Common_Born"
  },
  "equipController": {
    "attachPoints": {
      "equip01": "WeaponR",
      "equip02": "WeaponL",
      "equip03": "BombAttachPoint"
    },
    "sheathPoint": ""
  },
  "billboard": {
    "$type": "ConfigCombatBillboard",
    "offset": {
      "x": 0,
      "y": 0.4,
      "z": 0
    },
    "showDistance": 0,
    "showHPBar": false,
    "size": "Normal"
  },
  "combat": {
    "property": {
      "weight": 75, //weightLevel = 2
      "endureType": "Monster_Grunt_Humanoid",
      "endureshake": 0
    },
    "combatLock": {
      "denyLockOn": false,
      "lockType": "Avatar&Monster_Lv4",
      "overrideRange": -1,
      "overrideNormalPri": -1,
      "overrideCombatPri": -1
    },
    "beHit": {
      "hitBloodEffect": "",
      "muteAllHit": false,
      "muteAllHitEffect": false,
      "muteAllHitText": false
    },
    "die": {
      "hasAnimatorDie": true,
      "dieDisappearEffect": "",
      "dieDisappearEffectDelay": 0.0,
      "dieEndTime": 3.0,
      "dieForceDisappearTime": 4,
      "dieModelFadeDelay": 0.5,
      "dieShaderData": "AvatarDie",
      "useRagDoll": false,
      "ragDollDieEndTimeDelay": 0.0,
      "muteHitBox": true,
      "dieDenyLockOn": true,
      "dieIsGhostToEnemy": true,
      "dieIgnoreTriggerBullet": true,
      "muteBillboard": true,
      "mutePushCollider": true
    },
    "animEvents": {
      "AtkNo": {
        "attackPattern": {
          "$type": "ConfigAttackCircle",
          "duration": 0.0,
          "triggerType": "TriggerNoRepeat",
          "fanAngle": 60.0,
          "radius": 2.5,
          "born": {
            "$type": "ConfigBornBySelf",
            "offset": {
              "x": 0.0,
              "y": 0.0,
              "z": -0.5
            }
          }
        },
        "attackInfo": {
          "attackProperty": {
            "damagePercentage": 0.75,
            "strikeType": "Blunt",
            "attackType": "Melee",
            "enBreak": 120.0
          },
          "hitPattern": {
            "onHitEffectName": "default",
            "hitImpulseType": "LV5",
            "reboundRatio": 0,
            "hitHaltTime": 0.0,
            "hitHaltTimeScale": 0.01,
            "muteHitText": false
          }
        }
      }
    }
  },
  "inputKeys": [
    {
      "keyID": 201,
      "inputKeyCode": 257
    },
    {
      "keyID": 301,
      "inputKeyCode": 258
    },
    {
      "keyID": 501,
      "inputKeyCode": 259
    },
    {
      "keyID": 801,
      "inputKeyCode": 260
    },
    {
      "keyID": 10021,
      "inputKeyCode": 261
    },
    {
      "keyID": 10022,
      "inputKeyCode": 262
    },
    {
      "keyID": 10031,
      "inputKeyCode": 263
    },
    {
      "keyID": 10032,
      "inputKeyCode": 264
    },
    {
      "keyID": 103,
      "inputKeyCode": 265
    }
  ],
  "stateLayers": {
    "defaultLayer": {
      "$type": "ConfigNormalStateLayer",
      "stateIDs": {
        "NormalIdle": {
          "$type": "ConfigMonsterStateIDInfo",
          "animatorStates": {
            "Standby": [],
            "Born": []
          },
          "combatMove": true,
          "canDoSkill": true,
          "canSyncMove": true,
          "resetAnimatorTriggerOnExit": ["DoSkill"]
        },
        "NormalMove": {
          "$type": "ConfigMonsterStateIDInfo",
          "animatorStates": {
            "WalkForward": ["Audio_Hili_Walk"],
            "WalkBack": ["Audio_Hili_Walk"],
            "WalkRight": ["Audio_Hili_Walk"],
            "WalkLeft": ["Audio_Hili_Walk"],
            "Run": ["Audio_Hili_Run"]
          },
          "combatMove": true,
          "canDoSkill": true,
          "canSteer": true,
          "canSyncMove": true,
          "resetAnimatorTriggerOnExit": ["DoSkill"]
        },
        "Turn": {
          "$type": "ConfigMonsterStateIDInfo",
          "animatorStates": {
            "TurnLeft": ["Audio_Hili_Walk"],
            "TurnRight": ["Audio_Hili_Walk"]
          },
          "combatMove": true,
          "canDoSkill": true,
          "canSteer": true,
          "autoSteer": true,
          "canSyncMove": true,
          "resetAnimatorTriggerOnExit": ["DoSkill"]
        },
        "Turn_Bomb": {
          "$type": "ConfigMonsterStateIDInfo",
          "animatorStates": {
            "TurnLeft_Bomb": ["Audio_Hili_Walk"],
            "TurnRight_Bomb": ["Audio_Hili_Walk"]
          },
          "combatMove": true,
          "canDoSkill": true,
          "canSteer": true,
          "canSyncMove": true,
          "resetAnimatorTriggerOnExit": ["DoSkill"]
        },
        "WeaponOnFire": {
          "$type": "ConfigMonsterStateIDInfo",
          "animatorStates": {
            "WeaponOnFire": []
          },
          "combatMove": true,
          "canSyncMove": true,
          "resetAnimatorTriggerOnExit": ["DoSkill"]
        },
        "BeHit": {
          "$type": "ConfigMonsterStateIDInfo",
          "animatorStates": {
            "Hit_L": ["Audio_Hili_Wei_HitL"],
            "Hit_H": ["Audio_Hili_Wei_HitH"],
            "DHit": []
          },
          "combatMove": true,
          "resetAnimatorTriggerOnEnter": ["BeHit"],
          "resetAnimatorTriggerOnExit": ["DoSkill"]
        },
        "BeHitThrow": {
          "$type": "ConfigMonsterStateIDInfo",
          "animatorStates": {
            "HitThrow": ["Audio_Hili_Wei_HitTherowToGround"],
            "HitThrowDrop": [],
            "HitThrowToGround": ["Audio_Hili_Wei_HitTherowToGround"]
          },
          "combatMove": true,
          "resetAnimatorTriggerOnEnter": ["BeHit", "HitAir2HitDrop"],
          "resetAnimatorTriggerOnExit": ["DoSkill"]
        },
        "Struggle": {
          "$type": "ConfigMonsterStateIDInfo",
          "animatorStates": {
            "Struggle": []
          },
          "combatMove": true,
          "resetAnimatorTriggerOnEnter": ["BeHit", "HitAir2HitDrop"],
          "resetAnimatorTriggerOnExit": ["DoSkill"]
        },
        "Die": {
          "$type": "ConfigMonsterStateIDInfo",
          "animatorStates": {
            "Die1": [
              "Monster_Hili_None_Die",
              "Monster_Hili_Wei_Die",
              "Audio_Hili_Wei_Die"
            ],
            "Die2": [
              "Monster_Hili_None_Die",
              "Monster_Hili_Wei_Die",
              "Audio_Hili_Wei_Die"
            ],
            "AirDie": [
              "Monster_Hili_None_Die",
              "Monster_Hili_Wei_Die",
              "Audio_Hili_Wei_Die"
            ]
          }
        },
        "SwimDie": {
          "$type": "ConfigMonsterStateIDInfo",
          "animatorStates": {
            "SwimDie": ["", "Audio_Hili_SwimDie"],
            "SwimDie_Effect": [
              "Monster_Hili_Wei_SwimDie_Effect",
              "Audio_Hili_SwimDie"
            ],
            "SwimDie_AS": ["Monster_Hili_Wei_SwimDie_AS", "Audio_Hili_SwimDie"]
          }
        },
        "Retreat": {
          "$type": "ConfigMonsterStateIDInfo",
          "animatorStates": {
            "Retreat": ["Monster_Hili_Wei_Retreat", "Audio_Hili_Wei_Retreat"],
            "Disappear": [""]
          }
        },
        "Life_Alert": {
          "$type": "ConfigMonsterStateIDInfo",
          "animatorStates": {
            "Alert": [""]
          },
          "addEndure": 0.05,
          "combatMove": true,
          "resetAnimatorTriggerOnExit": ["BeHit", "DoSkill"]
        },
        "Life_Warning": {
          "$type": "ConfigMonsterStateIDInfo",
          "animatorStates": {
            "Warning": [
              "Monster_Hili_Wei_Alert",
              "Monster_Undead01_Warning",
              "Monster_Hili_None_Alert",
              "Audio_Hili_Wei_Alert"
            ]
          },
          "addEndure": 0.05,
          "combatMove": true,
          "resetAnimatorTriggerOnExit": ["BeHit", "DoSkill"]
        },
        //////////////////////////////////////////////////
        //	Watch states
        //////////////////////////////////////////////////
        "Watch": {
          "$type": "ConfigMonsterStateIDInfo",
          "animatorStates": {
            "Watch": []
          },
          "massRatio": 100000.0,
          "combatMove": true,
          "canDoSkill": true,
          "canSyncMove": true,
          "resetAnimatorTriggerOnExit": ["DoSkill"]
        },
        "WatchFree": {
          "$type": "ConfigMonsterStateIDInfo",
          "animatorStates": {
            "WatchFree01": ["Audio_Hili_Wei_WatchFree01"]
          },
          "massRatio": 100000.0,
          "combatMove": true,
          "canDoSkill": true,
          "resetAnimatorTriggerOnExit": ["BeHit", "DoSkill"]
        },
        //////////////////////////////////////////////////
        //	Search states
        //////////////////////////////////////////////////
        "Search": {
          "$type": "ConfigMonsterStateIDInfo",
          "animatorStates": {
            "Search": [""]
          },
          "massRatio": 100000.0,
          "combatMove": true,
          "canDoSkill": true,
          "resetAnimatorTriggerOnExit": ["BeHit", "DoSkill"]
        },
        "SearchFree": {
          "$type": "ConfigMonsterStateIDInfo",
          "animatorStates": {
            "SearchFree01": ["Audio_Hili_Wei_SearchFree01"]
          },
          "massRatio": 100000.0,
          "combatMove": true,
          "canDoSkill": true,
          "resetAnimatorTriggerOnExit": ["BeHit", "DoSkill"]
        },
        //////////////////////////////////////////////////
        //	Sit states
        //////////////////////////////////////////////////
        "TurnToSit": {
          "$type": "ConfigMonsterStateIDInfo",
          "animatorStates": {
            "TurnToSit": [
              "Monster_Hili_None_TurnToSit",
              "Audio_Hili_Wei_TurnToSit"
            ]
          },
          "massRatio": 100000.0,
          "combatMove": true,
          "canDoSkill": true,
          "resetAnimatorTriggerOnExit": ["BeHit", "DoSkill"]
        },
        "OutOfSit": {
          "$type": "ConfigMonsterStateIDInfo",
          "animatorStates": {
            "OutOfSit": [
              "Monster_Hili_None_OutOfSit",
              "Audio_Hili_Wei_OutOfSit"
            ]
          },
          "massRatio": 100000.0,
          "combatMove": true,
          "canDoSkill": true,
          "resetAnimatorTriggerOnExit": ["BeHit", "DoSkill"]
        },
        "Sit": {
          "$type": "ConfigMonsterStateIDInfo",
          "animatorStates": {
            "Sit": []
          },
          "massRatio": 100000.0,
          "combatMove": true,
          "canDoSkill": true,
          "canSyncMove": true,
          "resetAnimatorTriggerOnExit": ["DoSkill"]
        },
        "SitFree01": {
          "$type": "ConfigMonsterStateIDInfo",
          "animatorStates": {
            "SitFree01": ["Audio_Hili_Wei_SitFree01"]
          },
          "massRatio": 100000.0,
          "combatMove": true,
          "canDoSkill": true,
          "resetAnimatorTriggerOnExit": ["BeHit", "DoSkill"]
        },
        //////////////////////////////////////////////////
        //	Sleep states
        //////////////////////////////////////////////////
        "TurnToSleep": {
          "$type": "ConfigMonsterStateIDInfo",
          "animatorStates": {
            "TurnToSleep": [
              "Monster_Hili_Wei_TurnToSleep",
              "Monster_Hili_None_TurnToSleep",
              "Audio_Hili_Wei_TurnToSleep"
            ]
          },
          "massRatio": 100000.0,
          "combatMove": true,
          "canDoSkill": true,
          "resetAnimatorTriggerOnExit": ["BeHit", "DoSkill"]
        },
        "OutOfSleep": {
          "$type": "ConfigMonsterStateIDInfo",
          "animatorStates": {
            "OutOfSleep": [
              "Monster_Hili_Wei_OutOfSleep",
              "Monster_Hili_None_OutOfSleep",
              "Audio_Hili_Wei_OutOfSleep"
            ]
          },
          "massRatio": 100000.0,
          "combatMove": true,
          "canDoSkill": true,
          "resetAnimatorTriggerOnExit": ["BeHit", "DoSkill"]
        },
        "Sleep": {
          "$type": "ConfigMonsterStateIDInfo",
          "animatorStates": {
            "Sleep": [""]
          },
          "massRatio": 100000.0,
          "combatMove": true,
          "canDoSkill": true,
          "canSyncMove": true,
          "resetAnimatorTriggerOnExit": ["DoSkill"]
        },
        "SleepFree01": {
          "$type": "ConfigMonsterStateIDInfo",
          "animatorStates": {
            "SleepFree01": ["Audio_Hili_Wei_SleepFree01"]
          },
          "massRatio": 100000.0,
          "combatMove": true,
          "canDoSkill": true,
          "resetAnimatorTriggerOnExit": ["BeHit", "DoSkill"]
        },
        //////////////////////////////////////////////////
        //	Unclassified states
        //////////////////////////////////////////////////
        "BombCreate": {
          "$type": "ConfigMonsterStateIDInfo",
          "animatorStates": {
            "BombCreateBS": [
              "Monster_Hili_Wei_ThrowBomb_BombCreateBS",
              "Monster_Hili_Fire_BombCreateFail",
              "Audio_Hili_Wei_BombCreate_BS"
            ],
            "BombCreateLoop": [""],
            "BombCreateAS": [
              "Monster_Hili_Wei_ThrowBomb_BombCreateAS",
              "Audio_Hili_Fire_BombCreat",
              "Monster_Hili_Fire_SlimeShaderTrigger",
              "Audio_Hili_Wei_BombCreate_AS"
            ]
          },
          "addEndure": 0.15,
          "combatMove": true,
          "resetAnimatorTriggerOnEnter": ["BombCreateFail"],
          "resetAnimatorTriggerOnExit": ["BeHit", "DoSkill"]
        },
        "BombThrow": {
          "$type": "ConfigMonsterStateIDInfo",
          "animatorStates": {
            "BombThrow": [
              "Monster_Hili_Wei_ThrowBomb_Bomb_BombThrow",
              "Audio_Hili_Wei_BombThrow"
            ]
          },
          "addEndure": 0.5,
          "combatMove": true,
          "resetAnimatorTriggerOnExit": ["BeHit", "DoSkill"]
        },
        "NoWeapon_Attack": {
          "$type": "ConfigMonsterStateIDInfo",
          "animatorStates": {
            "NoWeapon_Attack": [
              "Monster_Hili_Wei_NoWeapon_Attack",
              "Audio_Hili_Wei_NoWeapon_Atk"
            ]
          },
          "addEndure": 0.15,
          "combatMove": true,
          "resetAnimatorTriggerOnExit": ["BeHit", "DoSkill"]
        },
        "ThrowPebble": {
          "$type": "ConfigMonsterStateIDInfo",
          "animatorStates": {
            "ThrowPebble_01": [
              "Monster_Hili_Wei_NoWeapon_ThrowAttack_First",
              "Audio_Hili_Wei_ThrowPebble"
            ],
            "ThrowPebble_02": [
              "Monster_Hili_Wei_NoWeapon_ThrowAttack_Combo",
              "Audio_Hili_Wei_ThrowPebble"
            ],
            "ThrowPebble_03": [
              "Monster_Hili_Wei_NoWeapon_ThrowAttack_Combo",
              "Audio_Hili_Wei_ThrowPebble"
            ]
          },
          "addEndure": 0.5,
          "combatMove": true,
          "resetAnimatorTriggerOnExit": ["BeHit", "DoSkill"],
          "massRatio": 100.0
        }
        // "Dodge":
        // {
        // 	"$type": "ConfigMonsterStateIDInfo",
        // 	"animatorStates":
        // 	{
        // 		"Dodge": ["Audio_Hili_Wei_Dodge"],
        // 	},
        // 	"combatMove": true,
        // 	"resetAnimatorTriggerOnExit": ["BeHit", "DoSkill", "DodgeTrigger" ],
        // },
        // "Taunt_NoWeapon" :
        // {
        // 	"$type": "ConfigMonsterStateIDInfo",
        // 	"animatorStates":
        // 	{
        // 		"Taunt_1": [ "Audio_Hili_Wei_Taunt_1" ],
        // 		"Taunt_2": [ "Audio_Hili_Wei_Taunt_2" ],
        // 	},
        // 	"combatMove" : true,
        // 	"resetAnimatorTriggerOnExit" : ["BeHit", "DoSkill" ],
        // },
      }
    }
  },
  "abilities": [
    //////////////////////////////////////////////////
    //	Alert abilities
    //////////////////////////////////////////////////
    {
      "abilityID": "Alert",
      "abilityName": "Hili_None_Alert"
    },
    {
      "abilityID": "Alert_Effect",
      "abilityName": "Hili_Wei_Alert_Effect"
    },
    //////////////////////////////////////////////////
    //	Common abilities
    //////////////////////////////////////////////////
    {
      "abilityID": "SteerAttack",
      "abilityName": "Hili_None_SteerAttack"
    },
    {
      "abilityID": "BombTurn",
      "abilityName": "Hili_Fire_BombTurn"
    },
    {
      "abilityID": "Retreat",
      "abilityName": "Hili_Wei_Retreat"
    },
    {
      "abilityID": "Die",
      "abilityName": "Hili_Wei_Die"
    },
    {
      "abilityID": "Attack_Effect",
      "abilityName": "Hili_Wei_Attack_Effect"
    },
    {
      "abilityID": "Invincible",
      "abilityName": "Hili_Wei_Invincible"
    },
    {
      "abilityID": "MuteTaunt",
      "abilityName": "Monster_Common_MuteTaunt"
    },
    // {
    // 	"abilityID": "LifeBarManager",
    // 	"abilityName": "Monster_Hili_Wei_LifeBarManager",
    // },
    {
      "abilityID": "Wei_IgnoreControlState",
      "abilityName": "Hili_Wei_IgnoreControlState"
    },
    //////////////////////////////////////////////////
    //	Bomb abilities
    //////////////////////////////////////////////////
    {
      "abilityID": "BombThrow",
      "abilityName": "Hili_Wei_BombAttack_BombThrow"
    },
    {
      "abilityID": "BombCreate",
      "abilityName": "Hili_Wei_ThrowBomb_BombCreate"
    },
    {
      "abilityID": "BombOnHand",
      "abilityName": "Hili_Wei_BombAttack_BombOnHand"
    },
    {
      "abilityID": "BombCreate_Effect",
      "abilityName": "Hili_Wei_BombAttack_BombCreate_Effect"
    },
    {
      "abilityID": "ThrowAttack",
      "abilityName": "Hili_Wei_NoWeapon_ThrowAttack"
    },
    {
      "abilityID": "ThrowAttack_Effect",
      "abilityName": "Hili_Wei_ThrowAttack_Effect"
    },
    {
      "abilityID": "SpecialsState_AIStateInitial",
      "abilityName": "Hili_None_SpecialsState_AIStateInitial"
    },
    {
      "abilityID": "Hili_ActionPointRegister",
      "abilityName": "Hili_None_ActionPointRegister"
    },
    //////////////////////////////////////////////////
    //	Sleep abilities
    //////////////////////////////////////////////////
    {
      "abilityID": "TurnToSleep",
      "abilityName": "Hili_None_TurnToSleep"
    },
    {
      "abilityID": "OutOfSleep",
      "abilityName": "Hili_None_OutOfSleep"
    },
    {
      "abilityID": "SleepEffectStart",
      "abilityName": "Hili_Wei_SleepEffectStart"
    },
    {
      "abilityID": "SleepEffectEnd",
      "abilityName": "Hili_Wei_SleepEffectEnd"
    },
    {
      "abilityID": "SleepState",
      "abilityName": "Hili_Wei_SleepState"
    },
    //////////////////////////////////////////////////
    //	Sit abilities
    //////////////////////////////////////////////////
    {
      "abilityID": "TurnToSit",
      "abilityName": "Hili_None_TurnToSit"
    },
    {
      "abilityID": "OutOfSit",
      "abilityName": "Hili_None_OutOfSit"
    },
    {
      "abilityID": "SpecialsState_Weapon",
      "abilityName": "Hili_None_SpecialsState_Weapon"
    }
  ],
  "initialPoses": {
    "Default": {
      "initialPoseID": 0
    },
    "Sleep": {
      "initialPoseID": 9002,
      "initialPoseParams": {
        "boolParams": {
          "Sleep": "true"
        }
      }
    },
    "Sit": {
      "initialPoseID": 9003,
      "initialPoseParams": {
        "boolParams": {
          "Sit": "true"
        }
      }
    },
    "Search": {
      "initialPoseID": 9004,
      "initialPoseParams": {
        "boolParams": {
          "Search": "true"
        }
      }
    },
    "Watch": {
      "initialPoseID": 9005,
      "initialPoseParams": {
        "boolParams": {
          "Watch": "true"
        }
      }
    }
  },
  "aibeta": {
    "enable": true,
    "skillGCD": 3.0,
    "moveSetting": {
      "almostReachedDistanceRun": 1.5
    },
    "neurons": {
      //"DefaultSetting": ["HIT", "ASLEEP", "AWAKE"],
      "DefaultSetting": ["HIT"],
      "Sleep": ["HIT", "ASLEEP", "AWAKE"]
      //"Sit": ["HIT", "SIT"],
    },
    // "profiling":
    // {
    // 	"staticPoses": [9002, 9003],
    // },
    "sensing": {
      "enable": true,
      "settings": {
        "DefaultSetting": {
          "hearAttractionRange": 0.0,
          "hearFootstepRange": 0.0,
          "sourcelessHitAttractionRange": 20.0,
          "viewRange": 0.0,
          "feelRange": 0.0
        },
        "HighAlert": {
          "viewRange": 10.0,
          "feelRange": 5.0
        }
      },
      "templates": {
        "DefaultTemplate": {
          "DefaultPoses": "DefaultSetting"
        },
        "HighAlertTemplate": {
          "DefaultPoses": "HighAlert"
        }
      }
    },
    // For later use
    // "precombat":
    // {
    // 	"bioClockSleepFrom": 11,
    // 	"bioClockSleepTo": 12,
    // },
    "defendArea": {
      "enable": true
    },
    "threat": {
      "clearThreatTimerByDistance": 3.0,
      "clearThreatByLostPath": true,
      "clearThreatTimerByLostPath": 10,
      "threatBroadcastRange": 0.0,
      "viewAttenuation": [
        { "x": 10.0, "y": 2.0 },
        { "x": 15.0, "y": 0.8 },
        { "x": 20.0, "y": 0.5 },
        { "x": 25.0, "y": 0.3 },
        { "x": 30.0, "y": 0.2 }
      ]
    },
    "returnToBornTactic": {
      "enable": true,
      "defaultSetting": {
        "speedLevel": 1,
        "fadeoutBeginTime": 99.0,
        "fadeoutEndTime": 99.0
      }
    },
    "investigateTactic": {
      "enable": false
    },
    "wanderTactic": {
      "enable": false,
      "condition": {
        "pose": [1001]
      },
      "defaultSetting": {
        "speedLevel": 1,
        "cdMin": 1.5,
        "cdMax": 3.0,
        "distanceFromBorn": 15.0,
        "distanceFromCurrentMin": 3.75,
        "distanceFromCurrentMax": 7.5
      }
    },
    "meleeChargeTactic": {
      "enable": true,
      "condition": {
        "pose": [1001]
      },
      "defaultSetting": {
        "speedLevel": 2,
        "speedLevelInner": 0,
        "innerDistance": 0,
        "stopDistance": 12.5,
        "startDistanceMin": 12.5,
        "startDistanceMax": 50
      },
      "specification": {
        "1001": {
          "speedLevel": 2,
          "speedLevelInner": 0,
          "innerDistance": 0,
          "stopDistance": 17.5,
          "startDistanceMin": 22.5,
          "startDistanceMax": 50
        }
      }
    },
    "facingMoveTactic": {
      "enable": true,
      "condition": {
        "pose": [1001]
      },
      "defaultSetting": {
        "speedLevel": 1,
        "rangeMin": 4.5,
        "rangeMax": 6.5,
        "facingMoveWeight": {
          "stop": 1.0,
          "forward": 0.0,
          "back": 0.0,
          "left": 2.0,
          "right": 2.0
        }
      },
      "specification": {
        "2001": {
          "rangeMin": 0,
          "rangeMax": 50,
          "facingMoveWeight": {
            "stop": 1,
            "forward": 0.0,
            "back": 0.0,
            "left": 0.0,
            "right": 0.0
          }
        },
        "2002": {
          "rangeMin": 0,
          "rangeMax": 12.5,
          "facingMoveWeight": {
            "stop": 1,
            "forward": 0.0,
            "back": 0.0,
            "left": 0.0,
            "right": 0.0
          }
        }
      }
    },
    "skills": {
      //////////////////////////////////////////////////
      //	Alert Skills
      //////////////////////////////////////////////////
      "103":
        //普通入战
        {
          "name": "OnAlert",
          "stateIDs": ["Life_Warning"],
          "skillType": "OnAlert",
          "skillQueryingTime": 3,
          "triggerGCD": false,
          "ignoreGCD": true,
          "faceTarget": true
        },
      "104":
        //战前行为入战
        {
          "name": "OnAlert",
          "stateIDs": ["Life_Warning"],
          "skillType": "OnNerve",
          "skillQueryingTime": 3,
          "triggerGCD": false,
          "ignoreGCD": true,
          "faceTarget": true,
          "castCondition": {
            "pose": [9002, 9003, 9004, 9005]
          },
          "nerveTrigger": ["HIT"]
        },
      //////////////////////////////////////////////////
      //	Melee Skills
      //////////////////////////////////////////////////
      "201":
        //手提箱攻击
        {
          "cd": 6.0,
          "cdUpperRange": 3.0,
          "combatSkillType": "MeleeAttack",
          "name": "NoWeapon_Attack",
          "stateIDs": ["NoWeapon_Attack"],
          "enableSkillPrepare": true,
          "castCondition": {
            "pickRangeMin": 0.0,
            "pickRangeMax": 7.25,
            "castRangeMin": 0.0,
            "castRangeMax": 2.0,
            "pose": [1001]
          }
        },
      //////////////////////////////////////////////////
      //	Ranged Skills
      //////////////////////////////////////////////////
      "301": {
        "cd": 3,
        "combatSkillType": "RangedAttack",
        "name": "ThrowPebble",
        "stateIDs": ["ThrowPebble"],
        "castCondition": {
          "pickRangeMin": 3.0,
          "pickRangeMax": 15.0,
          "pose": [1001]
        }
      },
      "302": {
        "cd": 3,
        "combatSkillType": "RangedAttack",
        "name": "ThrowPebble",
        "stateIDs": ["ThrowPebble"],
        "flagSelfInZone": "01",
        "castCondition": {
          "pickRangeMin": 0.0,
          "pickRangeMax": 15.0,
          "pose": [1001]
        }
      },
      "303": {
        "cd": 3,
        "combatSkillType": "RangedAttack",
        "name": "ThrowPebble",
        "stateIDs": ["ThrowPebble"],
        "flagTargetReachable": "01",
        "castCondition": {
          "pickRangeMin": 0.0,
          "pickRangeMax": 15.0,
          "pose": [1001]
        }
      },
      "304": {
        "cd": 3,
        "combatSkillType": "RangedAttack",
        "name": "ThrowPebble",
        "stateIDs": ["ThrowPebble"],
        "flagSelfInZone": "01",
        "flagTargetReachable": "01",
        "castCondition": {
          "pickRangeMin": 0.0,
          "pickRangeMax": 15.0,
          "pose": [1001]
        }
      },
      "501":
        //扔大杂物攻击
        //可寻路到目标时才放
        //自己在守备区时才放
        //目标在或不在守备区都行
        {
          "cd": 6.0,
          "cdUpperRange": 3.0,
          "combatSkillType": "RangedAttack",
          "name": "ThrowBomb",
          "stateIDs": ["BombCreate", "BombThrow"],
          "faceTarget": true,
          "castCondition": {
            "pickRangeMin": 3.0,
            "pickRangeMax": 22.5,
            "pose": [1001]
          }
        },
      //可寻路到目标时才放
      //自己不在守备区时才放
      //目标在或不在守备区都行
      "502": {
        "cd": 6.0,
        "cdUpperRange": 3.0,
        "combatSkillType": "RangedAttack",
        "name": "ThrowBomb",
        "stateIDs": ["BombCreate", "BombThrow"],
        "faceTarget": true,
        "flagSelfInZone": "01",
        "castCondition": {
          "pickRangeMin": 0.0,
          "pickRangeMax": 22.5,
          "pose": [1001]
        }
      },
      "503":
        //不可寻路到目标时才放
        //自己在守备区时才放
        //目标在或不在守备区都行
        {
          "cd": 6.0,
          "cdUpperRange": 3.0,
          "combatSkillType": "RangedAttack",
          "name": "ThrowBomb",
          "stateIDs": ["BombCreate", "BombThrow"],
          "faceTarget": true,
          "flagTargetReachable": "01",
          "castCondition": {
            "pickRangeMin": 0.0,
            "pickRangeMax": 22.5,
            "pose": [1001]
          }
        },
      //不可寻路到目标时才放
      //自己不在守备区时才放
      //目标在或不在守备区都行
      "504": {
        "cd": 6.0,
        "cdUpperRange": 3.0,
        "combatSkillType": "RangedAttack",
        "name": "ThrowBomb",
        "stateIDs": ["BombCreate", "BombThrow"],
        "faceTarget": true,
        "flagSelfInZone": "01",
        "flagTargetReachable": "01",
        "castCondition": {
          "pickRangeMin": 0.0,
          "pickRangeMax": 22.5,
          "pose": [1001]
        }
      },
      "505":
        //无论是否可寻路到目标都放
        //无论自己是否在守备区都放
        //目标在或不在守备区都行
        {
          "cd": 6.0,
          "cdUpperRange": 3.0,
          "initialCD": 6.0,
          "combatSkillType": "RangedAttack",
          "name": "ThrowBomb",
          "stateIDs": ["BombCreate", "BombThrow"],
          "faceTarget": true,
          "flagSelfInZone": "11",
          "flagTargetReachable": "11",
          "castCondition": {
            "pickRangeMin": 5,
            "pickRangeMax": 22.5,
            "pose": [1001]
          }
        },
      "506":
        //无论是否可寻路到目标都放
        //无论自己是否在守备区都放
        //目标在或不在守备区都行
        {
          "cd": 0.0,
          "cdUpperRange": 0.0,
          "ignoreGCD": true,
          "combatSkillType": "RangedAttack",
          "name": "ThrowBomb",
          "stateIDs": ["BombCreate", "BombThrow"],
          "faceTarget": true,
          "flagSelfInZone": "11",
          "flagTargetReachable": "11",
          "castCondition": {
            "pickRangeMin": 5,
            "pickRangeMax": 22.5,
            "pose": [203]
          }
        },
      //////////////////////////////////////////////////
      //	Retreat Skills
      //////////////////////////////////////////////////
      //////////////////////////////////////////////////
      //	Taunt Skills
      //////////////////////////////////////////////////
      // "901":
      // {
      // 	"cd": 1.0,
      // 	"cdUpperRange": 3.0,
      // 	"name": "Taunt_NoWeapon",
      // 	"stateIDs": ["Taunt_NoWeapon"],
      // 	"publicCDGroup": "RandomAction",
      // 	"flagSelfInZone": "01",
      // 	"faceTarget": true,
      // 	"ignoreGCD": true,
      // 	"triggerGCD": false,
      // 	"castCondition":
      // 	{
      // 		"pickRangeMin": 2.0,
      // 		"pickRangeMax": 10.0,
      // 		"pose": [1001],
      // 		"maxTargetAngleY": 45.0,
      // 	},
      // },
      // "902":
      // {
      // 	"cd": 1.0,
      // 	"cdUpperRange": 3.0,
      // 	"name": "Taunt_NoWeapon",
      // 	"stateIDs": ["Taunt_NoWeapon"],
      // 	"publicCDGroup": "RandomAction",
      // 	"flagTargetReachable": "01",
      // 	"faceTarget": true,
      // 	"ignoreGCD": true,
      // 	"triggerGCD": false,
      // 	"castCondition":
      // 	{
      // 		"pickRangeMin": 0.0,
      // 		"pickRangeMax": 10.0,
      // 		"pose": [1001],
      // 		"maxTargetAngleY": 45.0,
      // 	},
      // },
      // "903":
      // {
      // 	"cd": 1.0,
      // 	"cdUpperRange": 3.0,
      // 	"name": "Taunt_NoWeapon",
      // 	"stateIDs": ["Taunt_NoWeapon"],
      // 	"publicCDGroup": "RandomAction",
      // 	"flagSelfInZone": "01",
      // 	"flagTargetReachable": "01",
      // 	"faceTarget": true,
      // 	"ignoreGCD": true,
      // 	"triggerGCD": false,
      // 	"castCondition":
      // 	{
      // 		"pickRangeMin": 0.0,
      // 		"pickRangeMax": 10.0,
      // 		"pose": [1001],
      // 		"maxTargetAngleY": 45.0,
      // 	},
      // },
      // "904":
      // {
      // 	"priority": 2,
      // 	"cd": 5.0,
      // 	"cdUpperRange": 10.0,
      // 	"name": "Taunt_NoWeapon",
      // 	"stateIDs": ["Taunt_NoWeapon"],
      // 	"publicCDGroup": "RandomAction",
      // 	"faceTarget": true,
      // 	//"ignoreGCD": true,
      // 	//"triggerGCD": false,
      // 	"castCondition":
      // 	{
      // 		"pickRangeMin": 6.0,
      // 		"pickRangeMax": 30.0,
      // 		"pose": [1001],
      // 		"maxTargetAngleY": 45.0,
      // 	},
      // },
      // "905":
      // {
      // 	"cd": 2.0,
      // 	"cdUpperRange": 5.0,
      // 	"name": "Taunt_NoWeapon",
      // 	"stateIDs": ["Taunt_NoWeapon"],
      // 	"publicCDGroup": "RandomAction",
      // 	"faceTarget": true,
      // 	//"ignoreGCD": true,
      // 	"triggerGCD": false,
      // 	"castCondition":
      // 	{
      // 		"pickRangeMin": 3.0,
      // 		"pickRangeMax": 6.0,
      // 		"pose": [1001],
      // 		"maxTargetAngleY": 45.0,
      // 	},
      // },
      //////////////////////////////////////////////////
      //	Sleep Skills
      //////////////////////////////////////////////////
      "10021": {
        "name": "TurnToSleep",
        "stateIDs": ["TurnToSleep"],
        "skillType": "OnNerve",
        "skillQueryingTime": 3,
        "triggerGCD": false,
        "castCondition": {
          "pose": [1]
        },
        "nerveTrigger": ["ASLEEP"]
      },
      "10022": {
        "name": "OutOfSleep",
        "stateIDs": ["OutOfSleep"],
        "skillType": "OnNerve",
        "skillQueryingTime": 3,
        "triggerGCD": false,
        "castCondition": {
          "pose": [9002]
        },
        "nerveTrigger": ["AWAKE"]
      },
      "10023": {
        "cd": 15.0,
        "cdUpperRange": 25.0,
        "ignoreGCD": false,
        "initialCD": 15.0,
        "initialCDUpperRange": 25.0,
        /*				"publicCDGroup": "meleeAttack_long",*/
        "name": "SleepFree01",
        "stateIDs": ["SleepFree01"],
        "skillType": "Free",
        "castCondition": {
          "pose": [9002]
        }
      },
      //////////////////////////////////////////////////
      //	Sit Skills
      //////////////////////////////////////////////////
      "10031": {
        "name": "TurnToSit",
        "stateIDs": ["TurnToSit"],
        "skillType": "ActionPoint",
        "skillQueryingTime": 3,
        "triggerGCD": false,
        "castCondition": {
          "pose": [1]
        },
        "nerveTrigger": ["SIT"]
      },
      "10032": {
        "name": "OutOfSit",
        "stateIDs": ["OutOfSit"],
        "skillType": "OnNerve",
        "skillQueryingTime": 3,
        "triggerGCD": false,
        "castCondition": {
          "pose": [9003]
        },
        "nerveTrigger": ["WEATHER_BAD"]
      },
      "10033": {
        "cd": 15.0,
        "cdUpperRange": 15.0,
        "ignoreGCD": false,
        "initialCD": 15.0,
        "initialCDUpperRange": 15.0,
        /*				"publicCDGroup": "meleeAttack_long",*/
        "name": "SitFree01",
        "stateIDs": ["SitFree01"],
        "skillType": "Free",
        "castCondition": {
          "pose": [9003]
        }
      }
      //////////////////////////////////////////////////
      //	Search Skills
      //////////////////////////////////////////////////
      // "10043":
      // {
      // 	"cd": 3.0,
      // 	"cdUpperRange": 5.0,
      // 	"ignoreGCD": false,
      // 	"initialCD": 3.0,
      // 	//"initialCDUpperRange": 5.0,
      // 	"publicCDGroup": "meleeAttack_long",
      // 	"name": "SearchFree01",
      // 	"stateIDs": ["SearchFree"],
      // 	"skillType": "Free",
      // 	"castCondition":
      // 	{
      // 		"pose": [9004],
      // 	},
      // },
      //////////////////////////////////////////////////
      //	Watch Skills
      //////////////////////////////////////////////////
      // "10053":
      // {
      // 	"cd": 3.0,
      // 	"cdUpperRange": 5.0,
      // 	"ignoreGCD": false,
      // 	"initialCD": 3.0,
      // 	//"initialCDUpperRange": 15.0,
      // 	//"publicCDGroup": "meleeAttack_long",
      // 	"name": "WatchFree01",
      // 	"stateIDs": ["WatchFree"],
      // 	"skillType": "Free",
      // 	"castCondition":
      // 	{
      // 		"pose": [9005],
      // 	},
      // },
    }
  },
  "audio": {
    "$type": "ConfigMonsterAudio",
    "animAudio": {
      "onTransitionOut": [
        {
          "currentStateName": "Sword_TripleAttack",
          "audioEvent": { "text": "Stop_sfx_monster_hili_club_tripleAttack" },
          "otherStateNames": [],
          "usage": "Any"
        },
        {
          "currentStateName": "Sword_ThumpAttack",
          "audioEvent": { "text": "Stop_sfx_monster_hili_club_attack" },
          "otherStateNames": [],
          "usage": "Any"
        },
        {
          "currentStateName": "Build",
          "audioEvent": { "text": "Stop_sfx_monster_hili_build" },
          "otherStateNames": [],
          "usage": "Any"
        },
        {
          "currentStateName": "Make",
          "audioEvent": { "text": "Stop_sfx_monster_hili_build" },
          "otherStateNames": [""],
          "usage": "Any"
        },
        {
          "currentStateName": "Practice_Sword",
          "audioEvent": { "text": "Stop_sfx_monster_hili_practice_sword" },
          "otherStateNames": [""],
          "usage": "Any"
        },
        {
          "currentStateName": "Practice_NoWeapon",
          "audioEvent": { "text": "Stop_sfx_monster_hili_practice_sword" },
          "otherStateNames": [""],
          "usage": "Any"
        },
        {
          "currentStateName": "Practice_Sword_Back",
          "audioEvent": { "text": "Stop_sfx_monster_hili_practice_back" },
          "otherStateNames": [""],
          "usage": "Any"
        },
        {
          "currentStateName": "Practice_NoWeapon_Back",
          "audioEvent": { "text": "Stop_sfx_monster_hili_practice_back" },
          "otherStateNames": [""],
          "usage": "Any"
        },
        {
          "currentStateName": "Practice_Shoot_Aim",
          "audioEvent": { "text": "Stop_sfx_monster_hili_practice_shoot_aim" },
          "otherStateNames": ["Practice_Shoot_Attack"],
          "usage": "Except"
        },
        {
          "currentStateName": "Practice_Shoot_Attack",
          "audioEvent": { "text": "Stop_sfx_monster_hili_practice_shoot_aim" },
          "otherStateNames": [""],
          "usage": "Any"
        },
        {
          "currentStateName": "Dance",
          "audioEvent": { "text": "Stop_sfx_monster_hili_dance" },
          "otherStateNames": [""],
          "usage": "Any"
        },
        {
          "currentStateName": "SurroundFree01_Club",
          "audioEvent": { "text": "Stop_sfx_monster_hili_dance" },
          "otherStateNames": [""],
          "usage": "Any"
        },
        {
          "currentStateName": "SurroundFree01_NoWeapon",
          "audioEvent": { "text": "Stop_sfx_monster_hili_dance" },
          "otherStateNames": [""],
          "usage": "Any"
        },
        {
          "currentStateName": "ThreatFree01_NoWeapon",
          "audioEvent": { "text": "Stop_sfx_monster_hili_dance" },
          "otherStateNames": [""],
          "usage": "Any"
        },
        {
          "currentStateName": "ThreatFree02_NoWeapon",
          "audioEvent": { "text": "Stop_sfx_monster_hili_dance" },
          "otherStateNames": [""],
          "usage": "Any"
        },
        {
          "currentStateName": "ThreatFree01_Club",
          "audioEvent": { "text": "Stop_sfx_monster_hili_dance" },
          "otherStateNames": [""],
          "usage": "Any"
        },
        {
          "currentStateName": "ThreatFree02_Club",
          "audioEvent": { "text": "Stop_sfx_monster_hili_dance" },
          "otherStateNames": [""],
          "usage": "Any"
        }
      ],
      "onTransitionIn": [
        {
          "currentStateName": "OutOfBuild",
          "audioEvent": { "text": "Stop_sfx_monster_hili_build" },
          "otherStateNames": [],
          "usage": "Any"
        },
        {
          "currentStateName": "Alert",
          "audioEvent": { "text": "Stop_sfx_monster_hili_build" },
          "otherStateNames": [],
          "usage": "Any"
        },
        {
          "currentStateName": "BeHit",
          "audioEvent": { "text": "Stop_sfx_monster_hili_build" },
          "otherStateNames": [],
          "usage": "Any"
        },
        {
          "currentStateName": "Die",
          "audioEvent": { "text": "Stop_sfx_monster_hili_build" },
          "otherStateNames": [],
          "usage": "Any"
        },
        {
          "currentStateName": "Die1",
          "audioEvent": { "text": "Stop_sfx_monster_hili_build" },
          "otherStateNames": [],
          "usage": "Any"
        },
        {
          "currentStateName": "Die2",
          "audioEvent": { "text": "Stop_sfx_monster_hili_build" },
          "otherStateNames": [],
          "usage": "Any"
        },
        {
          "currentStateName": "OutOfMake",
          "audioEvent": { "text": "Stop_sfx_monster_hili_build" },
          "otherStateNames": [""],
          "usage": "Any"
        },
        {
          "currentStateName": "Practice_Sword_Back",
          "audioEvent": { "text": "Play_sfx_monster_hili_practice_back" },
          "otherStateNames": [""],
          "usage": "Any"
        },
        {
          "currentStateName": "Practice_NoWeapon_Back",
          "audioEvent": { "text": "Play_sfx_monster_hili_practice_back" },
          "otherStateNames": [""],
          "usage": "Any"
        },
        {
          "currentStateName": "Practice_Shoot_Aim",
          "audioEvent": { "text": "Play_sfx_monster_hili_practice_shoot_aim" },
          "otherStateNames": [""],
          "usage": "Any"
        },
        {
          "currentStateName": "Dance",
          "audioEvent": { "text": "Play_sfx_monster_hili_dance" },
          "otherStateNames": [""],
          "usage": "Any"
        },
        {
          "currentStateName": "OutOfDance",
          "audioEvent": { "text": "Stop_sfx_monster_hili_dance" },
          "otherStateNames": [""],
          "usage": "Any"
        },
        {
          "currentStateName": "SurroundFree01_Club",
          "audioEvent": { "text": "Play_sfx_monster_hili_dance" },
          "otherStateNames": [""],
          "usage": "Any"
        },
        {
          "currentStateName": "SurroundFree01_NoWeapon",
          "audioEvent": { "text": "Play_sfx_monster_hili_dance" },
          "otherStateNames": [""],
          "usage": "Any"
        },
        {
          "currentStateName": "OutOfSurround",
          "audioEvent": { "text": "Stop_sfx_monster_hili_dance" },
          "otherStateNames": [""],
          "usage": "Any"
        },
        {
          "currentStateName": "Alert",
          "audioEvent": { "text": "Stop_sfx_monster_hili_dance" },
          "otherStateNames": [],
          "usage": "Any"
        },
        {
          "currentStateName": "BeHit",
          "audioEvent": { "text": "Stop_sfx_monster_hili_dance" },
          "otherStateNames": [],
          "usage": "Any"
        },
        {
          "currentStateName": "Die",
          "audioEvent": { "text": "Stop_sfx_monster_hili_dance" },
          "otherStateNames": [],
          "usage": "Any"
        },
        {
          "currentStateName": "Die1",
          "audioEvent": { "text": "Stop_sfx_monster_hili_dance" },
          "otherStateNames": [],
          "usage": "Any"
        },
        {
          "currentStateName": "Die2",
          "audioEvent": { "text": "Stop_sfx_monster_hili_dance" },
          "otherStateNames": [],
          "usage": "Any"
        },
        {
          "currentStateName": "ThreatFree01_NoWeapon",
          "audioEvent": { "text": "Play_sfx_monster_hili_dance" },
          "otherStateNames": [""],
          "usage": "Any"
        },
        {
          "currentStateName": "ThreatFree02_NoWeapon",
          "audioEvent": { "text": "Play_sfx_monster_hili_dance" },
          "otherStateNames": [""],
          "usage": "Any"
        },
        {
          "currentStateName": "ThreatFree01_Club",
          "audioEvent": { "text": "Play_sfx_monster_hili_dance" },
          "otherStateNames": [""],
          "usage": "Any"
        },
        {
          "currentStateName": "ThreatFree02_Club",
          "audioEvent": { "text": "Play_sfx_monster_hili_dance" },
          "otherStateNames": [""],
          "usage": "Any"
        },
        {
          "currentStateName": "OutOfThreat",
          "audioEvent": { "text": "Stop_sfx_monster_hili_dance" },
          "otherStateNames": [""],
          "usage": "Any"
        }
      ]
    },
    "disableEvent": {
      "text": "Stop_sfx_monster_hili_dance"
    },
    "destroyEvent": {
      "text": "Stop_sfx_monster_hili_dance"
    },
    "randomVariantSwitchGroup": {
      "text": ""
    },
    "randomVariantSwitchValues": [
      {
        "text": ""
      }
    ]
  }
}
