{
  "$type": "ConfigMonster",
  "headControl": {
    "$type": "ConfigHeadControl",
    "useHeadControl": true,
    "maxYawDegree": 45,
    "maxPitchDegree": 30,
    "speed": 10,
    "animStates": [
      "NormalIdle/Standby",
      "NormalMove/WalkForward",
      "NormalMove/WalkBack",
      "NormalMove/WalkRight",
      "NormalMove/WalkLeft",
      "NormalMove/Run",
      "TurnLeft/TurnLeft_BS",
      "TurnLeft/TurnLeft_AS",
      "TurnRight/TurnRight_BS",
      "TurnRight/TurnRight_AS"
    ]
  },
  "common": {
    "scale": 2,
    "viewSize": 2.6,
    "height": 4.0,
    "modelHeight": 2.4,
    "effectAttachShape": {
      "$type": "ConfigEffectAttachSkinnedMesh",
      "mesh": "EffectMesh"
    },
    "mass": 10000.0,
    "useGrassDisplacement": true,
    "affectedByWorld": true,
    "checkInSurface": true,
    "clearAnimatorOnSetLightDeactive": true,
    "clearAIOnSetLightDeactive": true
  },
  "move": {
    "$type": "ConfigAnimatorMove",
    "facingMove": "FourDirection",
    "monsterSizeType": "StrongHumanoidType",
    "positionModifyState": "Walk",
    "handleCombatTaskImmediately": true
  },
  "dither": {
    "showDitherDuration": 2.0,
    "normalBetweenCamera": {
      "detectDitherRange": 5.0
    }
  },
  "equipController": {
    "attachPoints": {
      "equip01": "WeaponR",
      "equip02": "WeaponL"
    },
    "sheathPoint": ""
  },
  "billboard": {
    "$type": "ConfigCombatBillboard",
    "offsetType": "Character",
    "offset": {
      "x": 0,
      "y": 0,
      "z": 0
    },
    "radiusOffset": 1.6,
    "showDistance": 48,
    "showHPBar": true,
    "enableSelfAdapt": true,
    "size": "Grand"
  },
  "combat": {
    "property": {
      "weight": 150,
      "endureType": "Monster_Demiboss_Other"
    },
    "combatLock": {
      "denyLockOn": false,
      "lockType": "Avatar&Monster_Lv4"
    },
    "beHit": {
      "hitBloodEffect": "",
      "hitAutoRedirect": false,
      "muteAllHit": false,
      "muteAllHitEffect": false,
      "muteAllHitText": false
    },
    "die": {
      "hasAnimatorDie": true,
      "dieDisappearEffect": "Eff_Death_Common",
      "dieDisappearEffectDelay": 0.0,
      "dieEndTime": 2.0,
      "dieForceDisappearTime": 4,
      "dieShaderData": "MonsterDie",
      "useRagDoll": true,
      "ragDollDieEndTimeDelay": 0.0,
      "muteHitBox": true,
      "dieDenyLockOn": true,
      "dieIsGhostToEnemy": true,
      "dieIgnoreTriggerBullet": true,
      "muteBillboard": true,
      "mutePushCollider": true
    },
    "animEvents": {
      "Smash": {
        "attackPattern": {
          "$type": "ConfigAttackCircle",
          "triggerType": "TriggerNoRepeat",
          "radius": 3.5,
          "height": 5,
          "fanAngle": 270,
          "born": {
            "$type": "ConfigBornBySelf",
            "offset": {
              "x": 0,
              "y": -1,
              "z": 1.2
            }
          }
        },
        "attackInfo": {
          "attackProperty": {
            "damagePercentage": 0.375,
            "strikeType": "Blunt",
            "attackType": "Melee",
            "elementType": "Electric",
            "elementDurability": 25,
            "enBreak": 100.0
          },
          "hitPattern": {
            "onHitEffectName": "default",
            "hitImpulseType": "LV5",
            "reboundRatio": 0,
            "hitHaltTime": 0,
            "hitHaltTimeScale": 0,
            "muteHitText": false
          }
        }
      },
      "SmashHeavy": {
        "attackPattern": {
          "$type": "ConfigAttackCircle",
          "triggerType": "TriggerNoRepeat",
          "radius": 3.5,
          "height": 5,
          "fanAngle": 270,
          "born": {
            "$type": "ConfigBornBySelf",
            "offset": {
              "x": 0,
              "y": -1,
              "z": 0.8
            }
          }
        },
        "attackInfo": {
          "attenuationTag": "Monster_Brute_Electric_None",
          "attenuationGroup": "Monster_Brute_Electric_None",
          "attackProperty": {
            "damagePercentage": 0.375,
            "strikeType": "Blunt",
            "attackType": "Melee",
            "elementType": "Electric",
            "elementDurability": 50,
            "enBreak": 100.0
          },
          "hitPattern": {
            "onHitEffectName": "default",
            "hitImpulseType": "LV5",
            "reboundRatio": 0,
            "hitHaltTime": 0,
            "hitHaltTimeScale": 0,
            "muteHitText": false
          }
        }
      },
      "SmashHeavy_Explode": {
        "attackPattern": {
          "$type": "ConfigAttackBox",
          "triggerType": "TriggerNoRepeat",
          "born": {
            "$type": "ConfigBornBySelf",
            "offset": {
              "x": 0,
              "y": -1,
              "z": 4.3
            }
          },
          "size": {
            "x": 3.5,
            "y": 2.5,
            "z": 10
          }
        },
        "attackInfo": {
          "attackTag": "Brute_Electric_None_ActivateCrystal",
          "attenuationTag": "Monster_Brute_Electric_None",
          "attenuationGroup": "Monster_Brute_Electric_None",
          "attackProperty": {
            "damagePercentage": 0.375,
            "strikeType": "Blunt",
            "attackType": "Melee",
            "elementType": "Electric",
            "elementDurability": 50,
            "enBreak": 100.0
          },
          "hitPattern": {
            "onHitEffectName": "default",
            "hitImpulseType": "LV5",
            "reboundRatio": 0,
            "hitHaltTime": 0,
            "hitHaltTimeScale": 0,
            "muteHitText": false
          }
        }
      },
      "SmashEarthBoom": {
        "attackPattern": {
          "$type": "ConfigAttackCircle",
          "triggerType": "TriggerNoRepeat",
          "height": 2,
          "radius": 4.7,
          "born": {
            "$type": "ConfigBornBySelf",
            "offset": {
              "x": 0.0,
              "y": 0.8,
              "z": 2
            }
          }
        },
        "attackInfo": {
          "attenuationTag": "DoubleSmashAttack",
          "attackProperty": {
            "damagePercentage": 0.4,
            "strikeType": "Blunt",
            "attackType": "Melee",
            "elementType": "Electric",
            "elementDurability": 50,
            "enBreak": 101.0
          },
          "hitPattern": {
            "onHitEffectName": "default",
            "hitImpulseType": "LV5",
            "reboundRatio": 0,
            "hitHaltTime": 0,
            "hitHaltTimeScale": 0,
            "muteHitText": false
          },
          "forceCameraShake": true,
          "cameraShake": {
            "shakeType": "CustomVector",
            "shakeRange": 3,
            "shakeTime": 0.2,
            "shakeDir": {
              "x": 0,
              "y": 4,
              "z": 0
            }
          }
        }
      },
      "BurstStrike": {
        "attackPattern": {
          "$type": "ConfigAttackBox",
          "triggerType": "TriggerNoRepeat",
          "born": {
            "$type": "ConfigBornBySelf",
            "offset": {
              "x": 0,
              "y": 1.25,
              "z": -3
            }
          },
          "size": {
            "x": 3.5,
            "y": 2.5,
            "z": 14
          }
        },
        "attackInfo": {
          "attackTag": "Brute_Electric_None_ActivateCrystal",
          "attenuationTag": "Monster_Brute_Electric_None",
          "attenuationGroup": "Monster_Brute_Electric_None",
          "attackProperty": {
            "damagePercentage": 0.5,
            "strikeType": "Blunt",
            "attackType": "Melee",
            "elementType": "Electric",
            "elementDurability": 50,
            "enBreak": 100.0
          },
          "hitPattern": {
            "onHitEffectName": "default",
            "hitImpulseType": "LV5",
            "reboundRatio": 0,
            "hitHaltTime": 0,
            "hitHaltTimeScale": 0,
            "muteHitText": false
          }
        }
      },
      "BurstStrike_Explode": {
        "attackPattern": {
          "$type": "ConfigAttackBox",
          "triggerType": "TriggerNoRepeat",
          "born": {
            "$type": "ConfigBornBySelf",
            "offset": {
              "x": 0,
              "y": 1.25,
              "z": 11
            }
          },
          "size": {
            "x": 3.5,
            "y": 2.5,
            "z": 6
          }
        },
        "attackInfo": {
          "attackTag": "Brute_Electric_None_ActivateCrystal",
          "attenuationTag": "Monster_Brute_Electric_None",
          "attenuationGroup": "Monster_Brute_Electric_None",
          "attackProperty": {
            "damagePercentage": 0.5,
            "strikeType": "Blunt",
            "attackType": "Melee",
            "elementType": "Electric",
            "elementDurability": 50,
            "enBreak": 100.0
          },
          "hitPattern": {
            "onHitEffectName": "default",
            "hitImpulseType": "LV5",
            "reboundRatio": 0,
            "hitHaltTime": 0,
            "hitHaltTimeScale": 0,
            "muteHitText": false
          }
        }
      },
      "Swoop_01": {
        "attackPattern": {
          "$type": "ConfigAttackBox",
          "triggerType": "TriggerNoRepeat",
          "born": {
            "$type": "ConfigBornBySelf",
            "offset": {
              "x": 0,
              "y": 1.75,
              "z": -3
            }
          },
          "size": {
            "x": 3.5,
            "y": 2.5,
            "z": 5.5
          }
        },
        "attackInfo": {
          "attackTag": "Brute_Electric_None_ActivateCrystal",
          "attenuationTag": "Monster_Brute_Electric_None",
          "attenuationGroup": "Monster_Brute_Electric_None",
          "attackProperty": {
            "damagePercentage": 0.625,
            "strikeType": "Blunt",
            "attackType": "Melee",
            "elementType": "Electric",
            "elementDurability": 25,
            "enBreak": 150.0
          },
          "hitPattern": {
            "onHitEffectName": "default",
            "hitImpulseType": "LV5",
            "reboundRatio": 0,
            "hitHaltTime": 0,
            "hitHaltTimeScale": 0,
            "muteHitText": false
          }
        }
      },
      "Swoop_02": {
        "attackPattern": {
          "$type": "ConfigAttackBox",
          "triggerType": "TriggerNoRepeat",
          "born": {
            "$type": "ConfigBornBySelf",
            "offset": {
              "x": 0,
              "y": 1.75,
              "z": -1.75
            }
          },
          "size": {
            "x": 3.5,
            "y": 2.5,
            "z": 5.5
          }
        },
        "attackInfo": {
          "attackTag": "Brute_Electric_None_ActivateCrystal",
          "attenuationTag": "Monster_Brute_Electric_None",
          "attenuationGroup": "Monster_Brute_Electric_None",
          "attackProperty": {
            "damagePercentage": 0.625,
            "strikeType": "Blunt",
            "attackType": "Melee",
            "elementType": "Electric",
            "elementDurability": 25,
            "enBreak": 150.0
          },
          "hitPattern": {
            "onHitEffectName": "default",
            "hitImpulseType": "LV5",
            "reboundRatio": 0,
            "hitHaltTime": 0,
            "hitHaltTimeScale": 0,
            "muteHitText": false
          }
        }
      },
      "Swoop_Final": {
        "attackPattern": {
          "$type": "ConfigAttackCircle",
          "triggerType": "TriggerNoRepeat",
          "radius": 4.5,
          "height": 3.5,
          "fanAngle": 270,
          "born": {
            "$type": "ConfigBornBySelf",
            "offset": {
              "x": 0,
              "y": -1,
              "z": 1.55
            }
          }
        },
        "attackInfo": {
          "attackTag": "Brute_Electric_None_ActivateCrystal",
          "attenuationTag": "Monster_Brute_Electric_None",
          "attenuationGroup": "Monster_Brute_Electric_None",
          "attackProperty": {
            "damagePercentage": 0.625,
            "strikeType": "Blunt",
            "attackType": "Melee",
            "elementType": "Electric",
            "elementDurability": 50,
            "enBreak": 150.0
          },
          "hitPattern": {
            "onHitEffectName": "default",
            "hitImpulseType": "LV5",
            "reboundRatio": 0,
            "hitHaltTime": 0,
            "hitHaltTimeScale": 0,
            "muteHitText": false
          }
        }
      }
    }
  },
  "stateLayers": {
    "defaultLayer": {
      "$type": "ConfigNormalStateLayer",
      "stateIDs": {
        "NormalIdle": {
          "$type": "ConfigMonsterStateIDInfo",
          "animatorStates": {
            "Standby": [],
            "Born": []
          },
          "combatMove": true,
          "canDoSkill": true,
          "canSyncMove": true,
          "resetAnimatorTriggerOnExit": ["DoSkill"]
        },
        "TurnLeft": {
          "$type": "ConfigMonsterStateIDInfo",
          "animatorStates": {
            "TurnLeft_BS": ["Audio_Brute_Axe_Turn"],
            "TurnLeft_AS": ["Audio_Brute_Axe_Turn"]
          },
          "combatMove": true,
          "canDoSkill": true,
          "canSyncMove": true,
          "resetAnimatorTriggerOnExit": ["DoSkill"]
        },
        "TurnRight": {
          "$type": "ConfigMonsterStateIDInfo",
          "animatorStates": {
            "TurnRight_BS": ["Audio_Brute_Axe_Turn"],
            "TurnRight_AS": ["Audio_Brute_Axe_Turn"]
          },
          "combatMove": true,
          "canDoSkill": true,
          "canSyncMove": true,
          "resetAnimatorTriggerOnExit": ["DoSkill"]
        },
        "NormalMove": {
          "$type": "ConfigMonsterStateIDInfo",
          "animatorStates": {
            "WalkForward": ["Audio_Brute_Electric_None_Wlak"],
            "WalkBack": ["Audio_Brute_Electric_None_Wlak"],
            "WalkRight": ["Audio_Brute_Electric_None_Wlak"],
            "WalkLeft": ["Audio_Brute_Electric_None_Wlak"],
            "Run": ["Audio_Brute_Electric_None_Run"]
          },
          "combatMove": true,
          "canDoSkill": true,
          "canSteer": true,
          "canSyncMove": true,
          "resetAnimatorTriggerOnExit": ["DoSkill"]
        },
        "TurnToSit": {
          "$type": "ConfigMonsterStateIDInfo",
          "animatorStates": {
            "TurnToSit": [
              "Monster_Brute_None_Shield_TurnToSit",
              "Audio_Brute_Electric_None_TurnToSit"
            ]
          },
          "combatMove": true,
          "canDoSkill": true,
          "resetAnimatorTriggerOnExit": ["BeHit", "DoSkill"]
        },
        "OutOfSit": {
          "$type": "ConfigMonsterStateIDInfo",
          "animatorStates": {
            "OutOfSit": [
              "Monster_Brute_None_OutOfSit",
              "Audio_Brute_Electric_None_OutOfSit"
            ]
          },
          "combatMove": true,
          "canDoSkill": true,
          "resetAnimatorTriggerOnExit": ["BeHit", "DoSkill"]
        },
        "Sit": {
          "$type": "ConfigMonsterStateIDInfo",
          "animatorStates": {
            "Sit": []
          },
          "combatMove": true,
          "canDoSkill": true,
          "canSyncMove": true,
          "resetAnimatorTriggerOnExit": ["DoSkill"]
        },
        "Life_Talk": {
          "$type": "ConfigMonsterStateIDInfo",
          "animatorStates": {
            "Talk": [],
            "Talk_Sit": []
          },
          "combatMove": true,
          "canDoSkill": true,
          "resetAnimatorTriggerOnExit": ["BeHit", "DoSkill"]
        },
        "BeHit": {
          "$type": "ConfigMonsterStateIDInfo",
          "animatorStates": {
            "Hit_L": ["Audio_Brute_Axe_HitL"],
            "Hit_H": ["Audio_Brute_Shield_HitH"],
            "HitBack_L": [],
            "HitBack_H": []
          },
          "combatMove": true,
          "resetAnimatorTriggerOnEnter": ["BeHit"],
          "resetAnimatorTriggerOnExit": ["DoSkill"]
        },
        "BeHitThrow": {
          "$type": "ConfigMonsterStateIDInfo",
          "animatorStates": {
            "HitThrow": [],
            "HitThrowDrop": [],
            "HitThrowToGround": ["Audio_Brute_Electric_None_HitThrowDie"]
          },
          "combatMove": true,
          "resetAnimatorTriggerOnEnter": ["BeHit", "HitAir2HitDrop"],
          "resetAnimatorTriggerOnExit": ["DoSkill"]
        },
        "Struggle": {
          "$type": "ConfigMonsterStateIDInfo",
          "animatorStates": {
            "Struggle": []
          },
          "combatMove": true,
          "resetAnimatorTriggerOnEnter": ["BeHit", "HitAir2HitDrop"],
          "resetAnimatorTriggerOnExit": ["DoSkill"]
        },
        "Die": {
          "$type": "ConfigMonsterStateIDInfo",
          "animatorStates": {
            "Die_01": [
              "Monster_Brute_Electric_Die",
              "Audio_Brute_Electric_None_Die"
            ],
            "Die_02": ["Monster_Brute_Electric_Die"],
            "SwimDie": ["Monster_Brute_Electric_Die"]
          }
        },
        "Die_RagDoll": {
          "$type": "ConfigMonsterStateIDInfo",
          "animatorStates": {
            "Die_RagDoll_01": [],
            "Die_RagDoll_02": [],
            "AirDie": ["Monster_Brute_Electric_Die", "Audio_Brute_Ice_AirDie"]
          },
          "enableRagDoll": true
        },
        "Alert": {
          "$type": "ConfigMonsterStateIDInfo",
          "animatorStates": {
            "Alert": ["Monster_Brute_None_Alert"]
          },
          "combatMove": true,
          "resetAnimatorTriggerOnExit": ["BeHit", "DoSkill"]
        },
        "AwakeAlert": {
          "$type": "ConfigMonsterStateIDInfo",
          "animatorStates": {
            "AwakeAlert": ["Monster_Brute_None_AwakeAlert"]
          },
          "combatMove": true,
          "canDoSkill": true,
          "resetAnimatorTriggerOnExit": ["BeHit", "DoSkill", "AwakeAlert"]
        },
        // Power
        "PowerUp": {
          "$type": "ConfigMonsterStateIDInfo",
          "animatorStates": {
            "PowerUp": [
              "Monster_Brute_Electric_PowerUp",
              "Monster_Brute_Electric_PowerUp_ShakeCamera",
              "Audio_Brute_Electric_None_PowerUp"
            ],
            "ShowPowerBS": [
              "Monster_Brute_Electric_ShowPower",
              "Monster_Brute_Electric_PowerUp_ShakeCamera",
              "Audio_Brute_Electric_None_PowerUp"
            ]
          },
          "combatMove": true,
          "addEndure": 0,
          "resetAnimatorTriggerOnExit": ["BeHit", "DoSkill"]
        },
        "PowerDown": {
          "$type": "ConfigMonsterStateIDInfo",
          "animatorStates": {
            "PowerDown": [
              "Monster_Brute_Electric_PowerDown",
              "Audio_Brute_Electric_None_PowerDown"
            ]
          },
          "combatMove": true,
          "addEndure": 0,
          "resetAnimatorTriggerOnExit": ["BeHit", "DoSkill"]
        },
        // Smash
        "Smash": {
          "$type": "ConfigMonsterStateIDInfo",
          "animatorStates": {
            "Smash": [
              "Monster_Brute_Electric_Smash",
              "Audio_Brute_Electric_None_Smash"
            ]
          },
          "combatMove": true,
          "resetAnimatorTriggerOnExit": ["BeHit", "DoSkill", "SkillHitTrigger"],
          "massRatio": 20,
          "canSteer": true
        },
        "SmashHeavy": {
          "$type": "ConfigMonsterStateIDInfo",
          "animatorStates": {
            "SmashHeavyPower": [
              "Monster_Brute_Electric_SmashHeavy",
              "Audio_Brute_Electric_None_SmashHeavyPower"
            ]
          },
          "combatMove": true,
          "resetAnimatorTriggerOnExit": ["BeHit", "DoSkill"],
          "massRatio": 20,
          "canSteer": true
        },
        "DoubleSmash": {
          "$type": "ConfigMonsterStateIDInfo",
          "animatorStates": {
            "DoubleSmash": [
              "Monster_Brute_Electric_DoubleSmash",
              "Audio_Brute_Electric_None_DoubleSmash"
            ],
            "DoubleSmashPower": [
              "Monster_Brute_Electric_DoubleSmash",
              "Monster_Brute_Electric_PowerDoubleSmash",
              "Audio_Brute_Electric_None_DoubleSmash"
            ]
          },
          "combatMove": true,
          "resetAnimatorTriggerOnExit": [
            "BeHit",
            "DoSkill",
            "SkillHitTrigger",
            "NextSkillTrigger"
          ],
          "massRatio": 20,
          "canSteer": true
        },
        "BurstStrike": {
          "$type": "ConfigMonsterStateIDInfo",
          "animatorStates": {
            "StrikePower": [
              "Monster_Brute_Electric_BurstStrike",
              "Audio_Brute_Electric_None_StrikePower"
            ]
          },
          "combatMove": true,
          "resetAnimatorTriggerOnExit": ["BeHit", "DoSkill"],
          "massRatio": 20,
          "canSteer": true
        },
        // JumpAttack
        "JumpAttack": {
          "$type": "ConfigMonsterStateIDInfo",
          "animatorStates": {
            "JumpAttack": [
              "Monster_Brute_Electric_JumpAttack",
              "Audio_Brute_Electric_None_JumpAtk"
            ],
            "JumpAttackPower": [
              "Monster_Brute_Electric_JumpAttack",
              "Audio_Brute_Electric_None_JumpAtk"
            ],
            "DeadlyCombo_JumpAttack": [
              "Monster_Brute_Electric_JumpAttack",
              "Audio_Brute_Electric_None_JumpAtk"
            ]
          },
          "combatMove": true,
          "resetAnimatorTriggerOnExit": [
            "BeHit",
            "DoSkill",
            "SkillHitTrigger",
            "NextSkillTrigger"
          ],
          "massRatio": 20,
          "cullingModelAlwaysAnimate": true,
          "canSteer": true
        },
        // ThumpEarth
        "ThumpEarth": {
          "$type": "ConfigMonsterStateIDInfo",
          "animatorStates": {
            "ThumpEarthFirst": [
              "Monster_Brute_Electric_ThumpEarth",
              "Audio_Brute_Electric_None_ThumpEarthFirst"
            ],
            "ThumpEarthSecond": [
              "Monster_Brute_Electric_ThumpEarthFinal",
              "Audio_Brute_Electric_None_ThumpEarthFirst"
            ],
            "DeadlyCombo_ThumpEarthFirst": [
              "Monster_Brute_Electric_ThumpEarth",
              "Audio_Brute_Electric_None_ThumpEarthFirst"
            ],
            "DeadlyCombo_ThumpEarthSecond": [
              "Monster_Brute_Electric_ThumpEarthFinal",
              "Monster_Brute_Electric_DeadlyCombo_Weak",
              "Audio_Brute_Electric_None_ThumpEarthFirst"
            ]
          },
          "combatMove": true,
          "resetAnimatorTriggerOnExit": ["BeHit", "DoSkill"],
          "massRatio": 20,
          "canSteer": true
        },
        // Swoop
        "Swoop": {
          "$type": "ConfigMonsterStateIDInfo",
          "animatorStates": {
            "Swoop": [
              "Monster_Brute_Electric_Swoop",
              "Audio_Brute_Electric_None_Swoop"
            ]
          },
          "combatMove": true,
          "resetAnimatorTriggerOnExit": [
            "BeHit",
            "DoSkill",
            "SkillHitTrigger",
            "NextSkillTrigger"
          ],
          "massRatio": 20,
          "cullingModelAlwaysAnimate": true,
          "canSteer": true
        },
        // DeadlyCombo_Swoop
        "DeadlyCombo_Swoop": {
          "$type": "ConfigMonsterStateIDInfo",
          "animatorStates": {
            "DeadlyCombo_Swoop": [
              "Monster_Brute_Electric_DeadlyCombo_Swoop",
              "Audio_Brute_Electric_None_Swoop"
            ]
          },
          "combatMove": true,
          "resetAnimatorTriggerOnExit": [
            "BeHit",
            "DoSkill",
            "SkillHitTrigger",
            "NextSkillTrigger"
          ],
          "massRatio": 20,
          "cullingModelAlwaysAnimate": true,
          "canSteer": true
        },
        // ThrowSlime
        "ThrowSlime": {
          "$type": "ConfigMonsterStateIDInfo",
          "animatorStates": {
            "ThrowSlime": [
              "Monster_Brute_Electric_ThrowSlime",
              "Audio_Brute_Electric_None_ThrowSlime"
            ]
          },
          "combatMove": true,
          "resetAnimatorTriggerOnExit": ["BeHit", "DoSkill"],
          "canSteer": true
        },
        "ThrowPositiveSlime": {
          "$type": "ConfigMonsterStateIDInfo",
          "animatorStates": {
            "ThrowPositiveSlime": [
              "Monster_Brute_Electric_ThrowPositiveSlime",
              "Audio_Brute_Electric_None_ThrowSlime"
            ]
          },
          "combatMove": true,
          "resetAnimatorTriggerOnExit": ["BeHit", "DoSkill"],
          "canSteer": true
        },
        "ThrowBigSlime": {
          "$type": "ConfigMonsterStateIDInfo",
          "animatorStates": {
            "ThrowBigSlime": [
              "Monster_Brute_Electric_ThrowBigSlime",
              "Audio_Brute_Electric_None_ThrowSlime"
            ]
          },
          "combatMove": true,
          "resetAnimatorTriggerOnExit": ["BeHit", "DoSkill"],
          "canSteer": true
        },
        "ThrowBigPositiveSlime": {
          "$type": "ConfigMonsterStateIDInfo",
          "animatorStates": {
            "ThrowBigPositiveSlime": [
              "Monster_Brute_Electric_ThrowBigPositiveSlime",
              "Audio_Brute_Electric_None_ThrowSlime"
            ]
          },
          "combatMove": true,
          "resetAnimatorTriggerOnExit": ["BeHit", "DoSkill"],
          "canSteer": true
        }
      }
    }
  },
  "abilities": [
    // Common Config
    {
      "abilityID": "Alert",
      "abilityName": "Brute_None_Alert"
    },
    {
      "abilityID": "Monster_Brute_NoWeapon_OutOfSit",
      "abilityName": "Monster_Brute_NoWeapon_OutOfSit"
    },
    {
      "abilityID": "Brute_None_OutOfSit",
      "abilityName": "Brute_None_OutOfSit"
    },
    {
      "abilityID": "Brute_None_AwakeAlert",
      "abilityName": "Brute_None_AwakeAlert"
    },
    {
      "abilityID": "Monster_Brute_Electric_Steer",
      "abilityName": "Monster_Brute_Electric_Steer"
    },
    {
      "abilityID": "Monster_Brute_Electric_KillEvent",
      "abilityName": "Monster_Brute_Electric_KillEvent"
    },
    {
      "abilityID": "Monster_Brute_Electric_HeadCountrol",
      "abilityName": "Monster_Brute_Electric_HeadCountrol"
    },
    // Pose
    {
      "abilityID": "Monster_Brute_Electric_Pose",
      "abilityName": "Monster_Brute_Electric_Pose"
    },
    // Power
    {
      "abilityID": "Monster_Brute_Electric_PowerUp",
      "abilityName": "Monster_Brute_Electric_PowerUp"
    },
    {
      "abilityID": "Monster_Brute_Electric_PowerUp_ShakeCamera",
      "abilityName": "Monster_Brute_Electric_PowerUp_ShakeCamera"
    },
    {
      "abilityID": "Monster_Brute_Electric_PowerDown",
      "abilityName": "Monster_Brute_Electric_PowerDown"
    },
    // Smash
    {
      "abilityID": "Monster_Brute_Electric_DoubleSmash_CreateCrystal",
      "abilityName": "Monster_Brute_Electric_DoubleSmash_CreateCrystal"
    },
    // JumpAttack
    {
      "abilityID": "Monster_Brute_Electric_JumpRange",
      "abilityName": "Monster_Brute_Electric_JumpRange"
    },
    {
      "abilityID": "Monster_Brute_Electric_JumpAttack_Alert",
      "abilityName": "Monster_Brute_Electric_JumpAttack_Alert"
    },
    {
      "abilityID": "Monster_Brute_Electric_JumpAttack_Damage",
      "abilityName": "Monster_Brute_Electric_JumpAttack_Damage"
    },
    {
      "abilityID": "Monster_Brute_Electric_JumpAttack_Lightning",
      "abilityName": "Monster_Brute_Electric_JumpAttack_Lightning"
    },
    // ThumpEarth
    {
      "abilityID": "Monster_Brute_Electric_ThumpEarth",
      "abilityName": "Monster_Brute_Electric_ThumpEarth"
    },
    {
      "abilityID": "Monster_Brute_Electric_ThumpEarthFinal",
      "abilityName": "Monster_Brute_Electric_ThumpEarthFinal"
    },
    // Swoop
    {
      "abilityID": "Monster_Brute_Electric_Swoop",
      "abilityName": "Monster_Brute_Electric_Swoop"
    },
    // DeadlyCombo
    {
      "abilityID": "Monster_Brute_Electric_DeadlyCombo_Weak",
      "abilityName": "Monster_Brute_Electric_DeadlyCombo_Weak"
    },
    // ThrowSlime
    {
      "abilityID": "Monster_Brute_Electric_ThrowSlime",
      "abilityName": "Monster_Brute_Electric_ThrowSlime"
    },
    {
      "abilityID": "Monster_Brute_Electric_ThrowPositiveSlime",
      "abilityName": "Monster_Brute_Electric_ThrowPositiveSlime"
    },
    {
      "abilityID": "Monster_Brute_Electric_ThrowBigSlime",
      "abilityName": "Monster_Brute_Electric_ThrowBigSlime"
    },
    {
      "abilityID": "Monster_Brute_Electric_ThrowBigPositiveSlime",
      "abilityName": "Monster_Brute_Electric_ThrowBigPositiveSlime"
    },
    {
      "abilityName": "Monster_Brute_TowerDefence_Affix_PowerUp"
    }
  ],
  "initialPoses": {
    "Default": {
      "initialPoseID": 0,
      "initialPoseParams": {
        "boolParams": {
          "Sleep": "false",
          "Sit": "false"
        }
      }
    },
    "Sit": {
      "initialPoseID": 401,
      "initialPoseParams": {
        "boolParams": {
          "Sit": "true"
        }
      }
    }
  },
  "aibeta": {
    "enable": true,
    "skillGCD": 4,
    "neurons": {
      "DefaultSetting": ["HIT"],
      "NeverCombat": []
    },
    "profiling": {
      "staticPoses": [301, 401]
    },
    "sensing": {
      "settings": {
        "DefaultSetting": {
          "viewRange": 40.0,
          "feelRange": 10.0
        },
        "HighAlert": {
          "viewRange": 50.0,
          "feelRange": 12.0
        },
        "Sleep": {
          "viewRange": 0.0,
          "feelRange": 3.0
        },
        "Sit": {
          "viewRange": 15.0,
          "feelRange": 5.0
        },
        "NeverCombat": {
          "enableVision": false,
          "feelRange": 0.0,
          "hearAttractionRange": 0.0
        }
      },
      "templates": {
        "DefaultTemplate": {
          "DefaultPoses": "DefaultSetting",
          "301": "Sleep",
          "401": "Sit"
        },
        "HighAlertTemplate": {
          "DefaultPoses": "HighAlert",
          "301": "Sleep",
          "401": "Sit"
        },
        "NeverCombatTemplate": {
          "DefaultPoses": "NeverCombat",
          "301": "NeverCombat",
          "401": "NeverCombat"
        }
      }
    },
    "defendArea": {
      "enable": true,
      "defendRange": 50
    },
    "threat": {
      "clearThreatEdgeDistance": 2,
      "clearThreatByLostPath": true,
      "clearThreatTimerByLostPath": 10,
      "viewAttenuation": [
        { "x": 10.0, "y": 2.0 },
        { "x": 15.0, "y": 0.8 },
        { "x": 20.0, "y": 0.5 },
        { "x": 25.0, "y": 0.3 },
        { "x": 30.0, "y": 0.2 }
      ],
      "resistTauntLevel": "Monster_TauntLevel_3"
    },
    "returnToBornTactic": {
      "enable": true,
      "defaultSetting": {
        "speedLevel": 1
      }
    },
    "wanderTactic": {
      "enable": true,
      "condition": {
        "pose": [111, 113, 101, 102, 201, 202, 221]
      },
      "defaultSetting": {
        "speedLevel": 1,
        "turnSpeedOverride": 2.0,
        "cdMin": 1.5,
        "cdMax": 3.0,
        "distanceFromBorn": 15.0,
        "distanceFromCurrentMin": 3.75,
        "distanceFromCurrentMax": 7.5
      }
    },
    "meleeChargeTactic": {
      "enable": true,
      "condition": {
        "pose": [111, 113]
      },
      "defaultSetting": {
        "speedLevel": 1,
        "speedLevelInner": 1,
        "innerDistance": 0,
        "stopDistance": 2,
        "startDistanceMin": 2,
        "startDistanceMax": 50
      },
      "specification": {
        "111": {
          "speedLevel": 1,
          "speedLevelInner": 1,
          "innerDistance": 0,
          "stopDistance": 6,
          "startDistanceMin": 7,
          "startDistanceMax": 50
        },
        "112": {
          "speedLevel": 2,
          "speedLevelInner": 1,
          "innerDistance": 0,
          "stopDistance": 6,
          "startDistanceMin": 12.0,
          "startDistanceMax": 50
        }
      }
    },
    "facingMoveTactic": {
      "enable": true,
      "condition": {
        "pose": [111, 113, 114]
      },
      "defaultSetting": {
        "speedLevel": 1,
        "rangeMin": 0,
        "rangeMax": 7,
        "facingMoveWeight": {
          "stop": 2,
          "forward": 1,
          "back": 0,
          "left": 1,
          "right": 1
        }
      },
      "specification": {}
    },
    "skillGroupCDConfigs": [
      {
        "skillGroupCDID": 0,
        "skillGroupCDTime": 3
      },
      {
        "skillGroupCDID": 1,
        "skillGroupCDTime": 10
      },
      {
        "skillGroupCDID": 2,
        "skillGroupCDTime": 15
      },
      {
        "skillGroupCDID": 3,
        "skillGroupCDTime": 30
      },
      {
        "skillGroupCDID": 4,
        "skillGroupCDTime": 10
      }
    ],
    "network": {
      "syncSkill": true
    },
    "skillSetting": {
      "skillEliteSet": {
        "1": [1],
        "2": [2]
      }
    },
    "skills": {
      "1": {
        "priority": 1,
        "cd": 100,
        "ignoreGCD": true,
        "name": "PowerUp",
        "stateIDs": ["PowerUp"],
        "skillType": "Combat",
        "flagSelfInZone": "11",
        "flagTargetReachable": "11",
        "castCondition": {
          "maxTargetAngleXZ": 360,
          "pickRangeMin": 0,
          "pickRangeMax": 50,
          "pose": [113]
        }
      },
      "2": {
        "priority": 1,
        "cd": 100,
        "ignoreGCD": true,
        "name": "PowerUp",
        "stateIDs": ["PowerUp"],
        "skillType": "Free",
        "flagSelfInZone": "11",
        "flagTargetReachable": "11",
        "castCondition": {
          "pose": [101]
        }
      },
      "11": {
        "name": "ExitPower",
        "cd": 5.0,
        "initialCD": 0,
        "ignoreGCD": true,
        "priority": 1,
        "skillType": "Combat",
        "stateIDs": ["PowerDown"],
        "flagSelfInZone": "11",
        "flagTargetReachable": "11",
        "castCondition": {
          "pickRangeMin": 0,
          "pickRangeMax": 50,
          "pose": [115]
        }
      },
      "103": {
        "name": "OnAlert",
        "stateIDs": ["Alert"],
        "skillType": "OnAlert",
        "skillQueryingTime": 3,
        "triggerGCD": false,
        "ignoreGCD": true,
        "faceTarget": true
      },
      "104": {
        "name": "OnAlert",
        "stateIDs": ["Alert"],
        "skillType": "OnNerve",
        "skillQueryingTime": 3,
        "triggerGCD": false,
        "faceTarget": true,
        "castCondition": {
          "pose": [401]
        },
        "nerveTrigger": ["HIT"]
      },
      "121": {
        "name": "TurnToSit",
        "stateIDs": ["TurnToSit"],
        "skillType": "ActionPoint",
        "skillQueryingTime": 3,
        "triggerGCD": false,
        "castCondition": {
          "pose": [101, 102, 201, 202, 221]
        }
      },
      "122": {
        "name": "OutOfSit",
        "stateIDs": ["OutOfSit"],
        "skillType": "OnNerve",
        "skillQueryingTime": 3,
        "triggerGCD": false,
        "castCondition": {
          "pose": [401]
        },
        "nerveTrigger": ["AWAKE"]
      },
      "123": {
        "cd": 10.0,
        "cdUpperRange": 20.0,
        "ignoreGCD": true,
        "initialCD": 10.0,
        "initialCDUpperRange": 20.0,
        "name": "Talk_Sit",
        "stateIDs": ["Life_Talk"],
        "skillType": "Free",
        "castCondition": {
          "pose": [401]
        }
      },
      // Smash
      "201": {
        "priority": 5,
        "cd": 3,
        "ignoreGCD": false,
        "name": "Smash",
        "stateIDs": ["Smash"],
        "publicCDGroup": "Brute_MeleeAtk",
        "castCondition": {
          "maxTargetAngleXZ": 60,
          "castRangeMax": 2,
          "pickRangeMin": 0,
          "pickRangeMax": 4,
          "pose": [113]
        }
      },
      "211": {
        "priority": 4,
        "cd": 3,
        "name": "SmashHeavy",
        "stateIDs": ["SmashHeavy"],
        "publicCDGroup": "Brute_MeleeAtk",
        "castCondition": {
          "maxTargetAngleXZ": 90,
          "pickRangeMin": 2,
          "pickRangeMax": 7,
          "pose": [111]
        }
      },
      "221": {
        "priority": 4,
        "cd": 10,
        "name": "DoubleSmash",
        "stateIDs": ["DoubleSmash"],
        "publicCDGroup": "Brute_MeleeAtk",
        "castCondition": {
          "maxTargetAngleXZ": 90,
          "castRangeMax": 2,
          "pickRangeMin": 0,
          "pickRangeMax": 7,
          "pose": [113]
        }
      },
      "222": {
        "priority": 4,
        "cd": 5,
        "name": "DoubleSmashPower",
        "stateIDs": ["DoubleSmash"],
        "publicCDGroup": "Brute_MeleeAtk",
        "castCondition": {
          "maxTargetAngleXZ": 90,
          "pickRangeMin": 0,
          "pickRangeMax": 7,
          "pose": [111]
        }
      },
      "231": {
        "priority": 3,
        "cd": 7,
        "name": "BurstStrike",
        "stateIDs": ["BurstStrike"],
        "publicCDGroup": "Brute_MeleeAtk",
        "castCondition": {
          "maxTargetAngleXZ": 90,
          "castRangeMax": 9,
          "pickRangeMin": 5,
          "pickRangeMax": 15,
          "pose": [111]
        }
      },
      // JumpAttack
      "301": {
        "skillGroupCDID": 3,
        "cd": 5,
        "priority": 3,
        "initialCD": 40,
        "name": "NormalJumpAttack",
        "stateIDs": ["JumpAttack"],
        "publicCDGroup": "Brute_RangeAtk",
        "castCondition": {
          "maxTargetAngleXZ": 180,
          "pickRangeMin": 12,
          "pickRangeMax": 20,
          "pose": [113]
        }
      },
      "311": {
        "skillGroupCDID": 1,
        "cd": 12.5,
        "initialCD": 40,
        "priority": 4,
        "name": "PowerJumpAttack",
        "stateIDs": ["JumpAttack"],
        "publicCDGroup": "Brute_RangeAtk",
        "castCondition": {
          "maxTargetAngleXZ": 180,
          "pickRangeMin": 12,
          "pickRangeMax": 20,
          "pose": [111]
        }
      },
      // ThumpEarth
      "401": {
        "skillGroupCDID": 0,
        "priority": 3,
        "cd": 10.5,
        "initialCD": 10.5,
        "initialCDUpperRange": 2,
        "name": "ThumpEarth",
        "stateIDs": ["ThumpEarth"],
        "publicCDGroup": "Brute_MeleeAtk",
        "castCondition": {
          "maxTargetAngleXZ": 90,
          "pickRangeMin": 0,
          "pickRangeMax": 7.5,
          "pose": [111]
        }
      },
      // Swoop
      "501": {
        "skillGroupCDID": 0,
        "priority": 3,
        "cd": 10.5,
        "initialCD": 10.5,
        "initialCDUpperRange": 2,
        "name": "Swoop",
        "stateIDs": ["Swoop"],
        "publicCDGroup": "Brute_MeleeAtk",
        "castCondition": {
          "maxTargetAngleXZ": 120,
          "castRangeMin": 5.0,
          "castRangeMax": 10.0,
          "pickRangeMin": 5.0,
          "pickRangeMax": 10.0,
          "pose": [111]
        }
      },
      "502": {
        // 强化后和二连击冲拳后，都会立刻使用飞扑
        "priority": 2,
        "cd": 999999,
        "initialCD": 2,
        "initialCDUpperRange": 2,
        "name": "Swoop",
        "stateIDs": ["Swoop"],
        "publicCDGroup": "Brute_MeleeAtk",
        "castCondition": {
          "pose": [111]
        }
      },
      // DeadlyCombo
      "601": {
        "skillGroupCDID": 3,
        "priority": 3,
        "cd": 27.5,
        "initialCD": 17.5,
        "name": "DeadlyCombo",
        "stateIDs": [
          "PowerUp",
          "JumpAttack",
          "DeadlyCombo_Swoop",
          "ThumpEarth"
        ],
        "publicCDGroup": "Brute_RangeAtk",
        "castCondition": {
          "maxTargetAngleXZ": 90,
          "pickRangeMin": 5.0,
          "pickRangeMax": 20,
          "pose": [111]
        }
      },
      //ThrowSmallSlime
      "701": {
        "skillGroupCDID": 4,
        "cd": 3,
        "priority": 3,
        "name": "ThrowSmallSlime",
        "stateIDs": ["ThrowSlime"],
        "flagTargetReachable": "01",
        "faceTarget": true,
        "enableSkillPrepare": true,
        "skillPrepareTimeout": 5,
        "castCondition": {
          "maxTargetAngleXZ": 360,
          "castRangeMax": 10,
          "pickRangeMin": 0,
          "pickRangeMax": 30,
          "pose": [113, 114]
        }
      },
      //ThrowSmallPositiveSlime
      "702": {
        "skillGroupCDID": 4,
        "cd": 3,
        "priority": 3,
        "name": "ThrowSmallPositiveSlime",
        "stateIDs": ["ThrowPositiveSlime"],
        "flagTargetReachable": "01",
        "faceTarget": true,
        "enableSkillPrepare": true,
        "skillPrepareTimeout": 5,
        "castCondition": {
          "maxTargetAngleXZ": 360,
          "castRangeMax": 10,
          "pickRangeMin": 0,
          "pickRangeMax": 30,
          "pose": [113, 114]
        }
      },
      //ThrowBigSlime
      "711": {
        "skillGroupCDID": 4,
        "cd": 35,
        "initialCD": 30,
        "priority": 4,
        "name": "ThrowBigSlime",
        "stateIDs": ["ThrowBigSlime"],
        "faceTarget": true,
        "castCondition": {
          "maxTargetAngleXZ": 360,
          "pickRangeMin": 5,
          "pickRangeMax": 15,
          "pose": [111]
        }
      },
      "712": {
        "skillGroupCDID": 4,
        "cd": 3,
        "priority": 3,
        "name": "ThrowBigSlime",
        "stateIDs": ["ThrowBigSlime"],
        "flagTargetReachable": "01",
        "faceTarget": true,
        "enableSkillPrepare": true,
        "skillPrepareTimeout": 5,
        "castCondition": {
          "maxTargetAngleXZ": 360,
          "castRangeMax": 10,
          "pickRangeMin": 0,
          "pickRangeMax": 30,
          "pose": [111, 114]
        }
      },
      //ThrowBigPositiveSlime
      "713": {
        "skillGroupCDID": 4,
        "cd": 35,
        "initialCD": 30,
        "priority": 4,
        "name": "ThrowBigPositiveSlime",
        "stateIDs": ["ThrowBigPositiveSlime"],
        "faceTarget": true,
        "castCondition": {
          "maxTargetAngleXZ": 360,
          "pickRangeMin": 5,
          "pickRangeMax": 15,
          "pose": [111]
        }
      },
      "714": {
        "skillGroupCDID": 4,
        "cd": 3,
        "priority": 3,
        "name": "ThrowBigPositiveSlime",
        "stateIDs": ["ThrowBigPositiveSlime"],
        "flagTargetReachable": "01",
        "faceTarget": true,
        "enableSkillPrepare": true,
        "skillPrepareTimeout": 5,
        "castCondition": {
          "maxTargetAngleXZ": 360,
          "castRangeMax": 10,
          "pickRangeMin": 0,
          "pickRangeMax": 30,
          "pose": [111, 114]
        }
      }
    }
  },
  "inputKeys": [
    {
      //1
      "keyID": 1,
      "inputKeyCode": 257
    },
    {
      //2
      "keyID": 11,
      "inputKeyCode": 258
    },
    {
      //3
      "keyID": 201,
      "inputKeyCode": 259
    },
    {
      //4
      "keyID": 211,
      "inputKeyCode": 260
    },
    {
      //5
      "keyID": 221,
      "inputKeyCode": 261
    },
    {
      //6
      "keyID": 222,
      "inputKeyCode": 262
    },
    {
      //7
      "keyID": 231,
      "inputKeyCode": 263
    },
    {
      //8
      "keyID": 301,
      "inputKeyCode": 264
    },
    {
      //9
      "keyID": 311,
      "inputKeyCode": 265
    },
    {
      //\+1
      "keyID": 401,
      "inputKeyCode": 266
    },
    {
      //\+2
      "keyID": 501,
      "inputKeyCode": 267
    },
    {
      //\+3
      "keyID": 601,
      "inputKeyCode": 268
    },
    {
      //\+4
      "keyID": 701,
      "inputKeyCode": 269
    },
    {
      //\+5
      "keyID": 702,
      "inputKeyCode": 270
    },
    {
      //\+6
      "keyID": 711,
      "inputKeyCode": 271
    },
    {
      //\+7
      "keyID": 713,
      "inputKeyCode": 272
    }
  ],
  "audio": {
    "$type": "ConfigMonsterAudio",
    "animAudio": {
      "onTransitionOut": [
        {
          "currentStateName": "",
          "audioEvent": {
            "text": ""
          },
          "otherStateNames": [""],
          "usage": "Any"
        }
      ],
      "onTransitionIn": []
    }
  }
}
