{
  "$type": "ConfigMonster",
  "common": {
    "effectAttachShape": {
      "$type": "ConfigEffectAttachSkinnedMesh",
      "mesh": "EffectMesh"
    },
    "mass": 1000000.0,
    "height": 8.0,
    "affectedByWorld": true,
    "checkInSurface": true,
    "reconnectSupport": true,
    "clearAIOnSetLightDeactive": true,
    "recoverByInitPose": true
  },
  "specialPoint": {
    "bulletAim": "Fruit",
    "selectedPoints": ["Fruit", "Core", "RootNode"]
  },
  "partControl": {
    "parts": [
      {
        "$type": "ConfigControlPart",
        "partRootName": "BlazeSeedSource",
        "angularSpeed": 3600.0,
        "forwardBy": "NamedTransform",
        "forwardByTransName": "BlazeSeedSourceParent",
        "rotateBy": "ForwardTransLocal",
        "doOnUnEabled": "Stay",
        "limitHorizontal": 0.0,
        "limitVertical": 7.0
      },
      {
        "$type": "ConfigControlPart",
        "partRootName": "BaseControl",
        "angularSpeed": 3600.0,
        "forwardBy": "EntityForward",
        "rotateBy": "WorldXZ",
        "doOnUnEabled": "Stay",
        "limitHorizontal": 360.0,
        "limitVertical": 0.0
      },
      {
        "$type": "ConfigControlPart",
        "partRootName": "LaserPartControlL",
        "angularSpeed": 3600.0,
        "forwardBy": "EntityForward",
        "rotateBy": "WorldXZ",
        "doOnUnEabled": "Stay",
        "limitHorizontal": 360.0,
        "limitVertical": 360.0
      },
      {
        "$type": "ConfigControlPart",
        "partRootName": "LaserPartControlR",
        "angularSpeed": 3600.0,
        "forwardBy": "EntityForward",
        "rotateBy": "WorldXZ",
        "doOnUnEabled": "Stay",
        "limitHorizontal": 360.0,
        "limitVertical": 360.0
      },
      {
        "$type": "ConfigControlPart",
        "partRootName": "TopBulletSource",
        "angularSpeed": 3600.0,
        "forwardBy": "EntityForward",
        "rotateBy": "WorldXZ",
        "doOnUnEabled": "Stay",
        "limitHorizontal": 360,
        "limitVertical": 360.0
      }
    ]
  },
  "move": {
    "$type": "ConfigAnimatorMove",
    "velocityForce": {
      "muteAll": true
    },
    "moveOnWater": false,
    "destroyRockWhenInit": true
  },
  "billboard": {
    "$type": "ConfigCombatBillboard",
    "radiusOffset": 1.0,
    "showDistance": 1,
    "showHPBar": false,
    "size": "Grand"
  },
  "cameraAdjustMap": {
    "default": {
      "$type": "ConfigSpecialCamera",
      "priority": 1.0, //优先度
      "enterRadius": 25, //开启大怪相机的人怪距离
      "exitRadius": 30, //脱离大怪相机的人怪距离
      "heightAdjust": 0.75, //相机高度修正
      "fov": 47.5, //相机FOV修正
      "zoom": 8, //相机Z距离修正
      "sphericalY": 10, //初始俯角（游戏种默认是6）
      "lockSphericalY": false, //是否锁定俯仰角
      "sphericalYUp": 10, //始俯? 上修? （最大俯仰角为sphericalY + sphericalYUp）
      "sphericalYDown": 10, //始俯? 下修正（最大俯仰角为sphericalY - sphericalYDown）
      "autoTurnStartMin": 50, //人怪距?1米时，开启视角旋转修正的最小值
      "autoTurnStartMax": 40, //人怪距?15米时，开启视角旋转修正的最大值
      "autoTurnEndMin": 100, //人怪距?1米时，视角旋转修正后的角度
      "autoTurnEndMax": 145, //人怪距?15米时，视角旋转修正后的角度
      "enterShape": "CircleR25H12_5B",
      "exitShape": "CircleR30H15B",
      "shapeCenterOffset": {
        "x": 0,
        "y": -1.0,
        "z": 0
      }
    }
  },
  "combat": {
    "property": {
      "weight": 300, //weightLevel = 2
      "endureType": "Monster_Boss_Other"
    },
    "combatLock": {
      "denyLockOn": false,
      "lockType": "Avatar&Monster_Lv4"
    },
    "beHit": {
      "hitBloodEffect": "",
      "muteAllHit": false,
      "muteAllHitEffect": true,
      "muteAllHitText": false,
      "blendShake": {
        "$type": "ConfigBeHitBlendShakeByAinmator",
        "shakeFlagMap": [
          {
            "shakeFlag": 0.0,
            "hitBoxNames": ["HitBox_Core_Lockable"]
          },
          {
            "shakeFlag": 0.0,
            "hitBoxNames": ["HitBox_Core_Critical"]
          },
          {
            "shakeFlag": 0.2,
            "hitBoxNames": ["HitBox_Core"]
          },
          {
            "shakeFlag": 0.2,
            "hitBoxNames": ["HitBox_Core_Critical_Lockable"]
          },
          {
            "shakeFlag": 0.4,
            "hitBoxNames": ["HitBox_Base"]
          },
          {
            "shakeFlag": 0.6,
            "hitBoxNames": ["HitBox_Fruit"]
          },
          {
            "shakeFlag": 0.8,
            "hitBoxNames": ["HitBox_BranchL"]
          },
          {
            "shakeFlag": 1.0,
            "hitBoxNames": ["HitBox_BranchR"]
          }
        ]
      }
    },
    "die": {
      "hasAnimatorDie": true,
      "dieDisappearEffect": "Eff_Death_Common",
      "dieDisappearEffectDelay": 0.0,
      "dieEndTime": 2.0,
      "dieForceDisappearTime": 4,
      "dieShaderData": "MonsterDie",
      "useRagDoll": false,
      "ragDollDieEndTimeDelay": 0.0,
      "muteHitBox": true,
      "dieDenyLockOn": true,
      "dieIsGhostToEnemy": true,
      "dieIgnoreTriggerBullet": true,
      "muteBillboard": true,
      "mutePushCollider": true
    },
    "animEvents": {
      "MeleeAtk_Wave": {
        "attackPattern": {
          "$type": "ConfigAttackBox",
          "triggerType": "TriggerNoRepeat",
          "size": {
            "x": 4,
            "y": 2,
            "z": 4.0
          },
          "born": {
            "$type": "ConfigBornByTarget",
            "offset": {
              "x": 0,
              "y": 1.0,
              "z": 2.5
            }
          }
        },
        "attackInfo": {
          "attackProperty": {
            "damagePercentage": 1,
            "elementType": "Electric",
            "strikeType": "Blunt",
            "attackType": "Melee",
            "enBreak": 200.0
          },
          "hitPattern": {
            "onHitEffectName": "default",
            "hitImpulseType": "LV5",
            "reboundRatio": 0,
            "hitHaltTime": 0,
            "hitHaltTimeScale": 0.01,
            "muteHitText": false
          },
          "forceCameraShake": true,
          "cameraShake": {
            "shakeType": "CustomVector",
            "shakeRange": 1.0,
            "shakeTime": 0.15,
            "shakeDistance": 25.0,
            "baseOnCamera": true,
            "shakeDir": {
              "x": 0,
              "y": -1,
              "z": 0
            }
          }
        }
      },
      "MeleeAtk02": {
        "attackPattern": {
          "$type": "ConfigAttackCircle",
          "duration": 0.0,
          "triggerType": "TriggerNoRepeat",
          "height": 6.0,
          "fanAngle": 210.0,
          "radius": 9.0,
          "born": {
            "$type": "ConfigBornBySelf",
            "offset": {
              "x": 0.0,
              "y": 0.0,
              "z": 0.0
            },
            "direction": {
              "$type": "ConfigDirectionByEntity",
              "angleOffset": {
                "x": 0.0,
                "y": 270.0,
                "z": 0.0
              }
            }
          }
        },
        "attackInfo": {
          "attackProperty": {
            "damagePercentage": 0.75,
            "strikeType": "Default",
            "attackType": "Melee",
            "elementType": "Electric",
            "enBreak": 200.0
          },
          "hitPattern": {
            "onHitEffectName": "default",
            "hitImpulseType": "LV5",
            "reboundRatio": 0,
            "hitHaltTime": 0,
            "hitHaltTimeScale": 0.01,
            "muteHitText": false
          },
          "forceCameraShake": true,
          "cameraShake": {
            "shakeType": "CustomVector",
            "shakeRange": 3,
            "shakeTime": 0.15,
            "shakeDistance": 25.0,
            "baseOnCamera": true,
            "shakeDir": {
              "x": 1,
              "y": 0,
              "z": 0
            }
          }
        }
      },
      "MeleeAtk02_Reverse": {
        "attackPattern": {
          "$type": "ConfigAttackCircle",
          "duration": 0.0,
          "triggerType": "TriggerNoRepeat",
          "height": 6.0,
          "fanAngle": 210.0,
          "radius": 9.0,
          "born": {
            "$type": "ConfigBornBySelf",
            "offset": {
              "x": 0.0,
              "y": 0.0,
              "z": 0.0
            },
            "direction": {
              "$type": "ConfigDirectionByEntity",
              "angleOffset": {
                "x": 0.0,
                "y": -270.0,
                "z": 0.0
              }
            }
          }
        },
        "attackInfo": {
          "attackProperty": {
            "damagePercentage": 0.75,
            "strikeType": "Blunt",
            "attackType": "Melee",
            "elementType": "Electric",
            "enBreak": 200.0
          },
          "hitPattern": {
            "onHitEffectName": "default",
            "hitImpulseType": "LV5",
            "reboundRatio": 0,
            "hitHaltTime": 0,
            "hitHaltTimeScale": 0.01,
            "muteHitText": false
          },
          "forceCameraShake": true,
          "cameraShake": {
            "shakeType": "CustomVector",
            "shakeRange": 1.5,
            "shakeTime": 0.3,
            "shakeDistance": 25.0,
            "baseOnCamera": true,
            "shakeDir": {
              "x": -1,
              "y": 0,
              "z": 0
            }
          }
        }
      },
      "MeleeAtk03": {
        "attackPattern": {
          "$type": "ConfigAttackCircle",
          "duration": 0.0,
          "triggerType": "TriggerNoRepeat",
          "height": 6.0,
          "fanAngle": 360.0,
          "radius": 10.0,
          "born": {
            "$type": "ConfigBornBySelf",
            "offset": {
              "x": 0.0,
              "y": 0.0,
              "z": 0.0
            }
          }
        },
        "attackInfo": {
          "attenuationTag": "Regisvine_MeleeAttack03",
          "attenuationGroup": "Regisvine_Common",
          "attackProperty": {
            "damagePercentage": 0.75,
            "elementType": "Electric",
            "strikeType": "Blunt",
            "enBreak": 200.0
          },
          "hitPattern": {
            "onHitEffectName": "default",
            "hitImpulseType": "LV5",
            "reboundRatio": 0,
            "hitHaltTime": 0,
            "hitHaltTimeScale": 0.01,
            "muteHitText": false
          },
          "forceCameraShake": true,
          "cameraShake": {
            "shakeType": "CustomVector",
            "shakeRange": 1.0,
            "shakeTime": 0.15,
            "shakeDistance": 25.0,
            "baseOnCamera": true,
            "shakeDir": {
              "x": 0,
              "y": -1,
              "z": 0
            }
          }
        }
      },
      "RevengeAtk_Begin": {
        "attackPattern": {
          "$type": "ConfigAttackBox",
          "triggerType": "TriggerNoRepeat",
          "size": {
            "x": 6,
            "y": 2,
            "z": 8.0
          },
          "born": {
            "$type": "ConfigBornBySelf",
            "offset": {
              "x": 3.0,
              "y": 1.0,
              "z": -1.5
            },
            "direction": {
              "$type": "ConfigDirectionByEntity",
              "angleOffset": {
                "x": 0.0,
                "y": 90.0,
                "z": 0.0
              }
            }
          }
        },
        "attackInfo": {
          "attackProperty": {
            "damagePercentage": 0.75,
            "elementType": "Electric",
            "strikeType": "Blunt",
            "enBreak": 200.0
          },
          "hitPattern": {
            "onHitEffectName": "default",
            "hitImpulseType": "LV5",
            "reboundRatio": 0,
            "hitHaltTime": 0,
            "hitHaltTimeScale": 0.01,
            "muteHitText": false
          },
          "forceCameraShake": true,
          "cameraShake": {
            "shakeType": "CustomVector",
            "shakeRange": 1.0,
            "shakeTime": 0.15,
            "shakeDistance": 25.0,
            "baseOnCamera": true,
            "shakeDir": {
              "x": 0,
              "y": -1,
              "z": 0
            }
          }
        }
      },
      "RevengeAtk": {
        "attackPattern": {
          "$type": "ConfigAttackCircle",
          "duration": 0.0,
          "triggerType": "TriggerNoRepeat",
          "height": 6.0,
          "fanAngle": 360.0,
          "radius": 12.5,
          "born": {
            "$type": "ConfigBornBySelf",
            "offset": {
              "x": 0.0,
              "y": 0.0,
              "z": 0.0
            },
            "direction": {
              "$type": "ConfigDirectionByEntity",
              "angleOffset": {
                "x": 0.0,
                "y": 0.0,
                "z": 0.0
              }
            }
          }
        },
        "attackInfo": {
          "attackProperty": {
            "damagePercentage": 0.75,
            "strikeType": "Default",
            "elementType": "Electric",
            "enBreak": 200.0
          },
          "hitPattern": {
            "onHitEffectName": "default",
            "hitImpulseType": "LV5",
            "reboundRatio": 0,
            "hitHaltTime": 0,
            "hitHaltTimeScale": 0.01,
            "muteHitText": false
          },
          "forceCameraShake": true,
          "cameraShake": {
            "shakeType": "CustomVector",
            "shakeRange": 1.0,
            "shakeTime": 1.0,
            "shakeDistance": 25,
            "baseOnCamera": true,
            "shakeDir": {
              "x": 1,
              "y": 0,
              "z": 0
            }
          }
        }
      },
      "MeleeCmbo01_Begin": {
        "attackPattern": {
          "$type": "ConfigAttackBox",
          "triggerType": "TriggerNoRepeat",
          "size": {
            "x": 4,
            "y": 2,
            "z": 6.0
          },
          "born": {
            "$type": "ConfigBornBySelf",
            "offset": {
              "x": -2.0,
              "y": 0.0,
              "z": 3.0
            },
            "direction": {
              "$type": "ConfigDirectionByEntity",
              "angleOffset": {
                "x": 0.0,
                "y": 270.0,
                "z": 0.0
              }
            }
          }
        },
        "attackInfo": {
          "attackProperty": {
            "damagePercentage": 0.75,
            "elementType": "Electric",
            "strikeType": "Blunt",
            "attackType": "Melee",
            "enBreak": 200.0
          },
          "hitPattern": {
            "onHitEffectName": "default",
            "hitImpulseType": "LV5",
            "reboundRatio": 0,
            "hitHaltTime": 0,
            "hitHaltTimeScale": 0.01,
            "muteHitText": false
          },
          "forceCameraShake": true,
          "cameraShake": {
            "shakeType": "CustomVector",
            "shakeRange": 1.0,
            "shakeTime": 0.15,
            "shakeDistance": 25.0,
            "baseOnCamera": true,
            "shakeDir": {
              "x": 0,
              "y": -1,
              "z": 0
            }
          }
        }
      },
      "MeleeCmbo01": {
        "attackPattern": {
          "$type": "ConfigAttackCircle",
          "duration": 0.0,
          "triggerType": "TriggerNoRepeat",
          "height": 6.0,
          "fanAngle": 150.0,
          "radius": 10.0,
          "born": {
            "$type": "ConfigBornBySelf",
            "offset": {
              "x": 0.0,
              "y": 0.0,
              "z": 0.0
            },
            "direction": {
              "$type": "ConfigDirectionByEntity",
              "angleOffset": {
                "x": 0.0,
                "y": 15.0,
                "z": 0.0
              }
            }
          }
        },
        "attackInfo": {
          "attackProperty": {
            "damagePercentage": 0.75,
            "strikeType": "Blunt",
            "attackType": "Melee",
            "elementType": "Electric",
            "enBreak": 200.0
          },
          "hitPattern": {
            "onHitEffectName": "default",
            "hitImpulseType": "LV5",
            "reboundRatio": 0,
            "hitHaltTime": 0,
            "hitHaltTimeScale": 0.01,
            "muteHitText": false
          },
          "forceCameraShake": true,
          "cameraShake": {
            "shakeType": "CustomVector",
            "shakeRange": 1.0,
            "shakeTime": 0.5,
            "shakeDistance": 25,
            "shakeDir": {
              "x": -1,
              "y": 0,
              "z": 0
            }
          }
        }
      },
      "MeleeCmbo02_Begin": {
        "attackPattern": {
          "$type": "ConfigAttackBox",
          "triggerType": "TriggerNoRepeat",
          "size": {
            "x": 4,
            "y": 2,
            "z": 6.0
          },
          "born": {
            "$type": "ConfigBornBySelf",
            "offset": {
              "x": 1.5,
              "y": 0.0,
              "z": 2.5
            },
            "direction": {
              "$type": "ConfigDirectionByEntity",
              "angleOffset": {
                "x": 0.0,
                "y": 90.0,
                "z": 0.0
              }
            }
          }
        },
        "attackInfo": {
          "attackProperty": {
            "damagePercentage": 0.75,
            "elementType": "Electric",
            "strikeType": "Blunt",
            "attackType": "Melee",
            "enBreak": 200.0
          },
          "hitPattern": {
            "onHitEffectName": "default",
            "hitImpulseType": "LV5",
            "reboundRatio": 0,
            "hitHaltTime": 0,
            "hitHaltTimeScale": 0.01,
            "muteHitText": false
          },
          "forceCameraShake": true,
          "cameraShake": {
            "shakeType": "CustomVector",
            "shakeRange": 1.0,
            "shakeTime": 0.15,
            "shakeDistance": 25.0,
            "baseOnCamera": true,
            "shakeDir": {
              "x": 0,
              "y": -1,
              "z": 0
            }
          }
        }
      },
      "MeleeCmbo02": {
        "attackPattern": {
          "$type": "ConfigAttackCircle",
          "duration": 0.0,
          "triggerType": "TriggerNoRepeat",
          "height": 6.0,
          "fanAngle": 180.0,
          "radius": 10.0,
          "born": {
            "$type": "ConfigBornBySelf",
            "offset": {
              "x": 0.0,
              "y": 0.0,
              "z": 0.0
            },
            "direction": {
              "$type": "ConfigDirectionByEntity",
              "angleOffset": {
                "x": 0.0,
                "y": 330.0,
                "z": 0.0
              }
            }
          }
        },
        "attackInfo": {
          "attackProperty": {
            "damagePercentage": 0.75,
            "strikeType": "Blunt",
            "attackType": "Melee",
            "elementType": "Electric",
            "enBreak": 200.0
          },
          "hitPattern": {
            "onHitEffectName": "default",
            "hitImpulseType": "LV5",
            "reboundRatio": 0,
            "hitHaltTime": 0,
            "hitHaltTimeScale": 0.01,
            "muteHitText": false
          },
          "forceCameraShake": true,
          "cameraShake": {
            "shakeType": "CustomVector",
            "shakeRange": 1.0,
            "shakeTime": 0.5,
            "shakeDistance": 25,
            "shakeDir": {
              "x": -1,
              "y": 0,
              "z": 0
            }
          }
        }
      },
      "MeleeCmbo03": {
        "attackPattern": {
          "$type": "ConfigAttackBox",
          "triggerType": "TriggerNoRepeat",
          "size": {
            "x": 4,
            "y": 2,
            "z": 5.0
          },
          "born": {
            "$type": "ConfigBornByTarget",
            "offset": {
              "x": 0,
              "y": 1.0,
              "z": 3.0
            }
          }
        },
        "attackInfo": {
          "attackProperty": {
            "damagePercentage": 0.75,
            "elementType": "Electric",
            "strikeType": "Blunt",
            "attackType": "Range",
            "enBreak": 200.0
          },
          "hitPattern": {
            "onHitEffectName": "default",
            "hitImpulseType": "LV5",
            "reboundRatio": 0,
            "hitHaltTime": 0,
            "hitHaltTimeScale": 0.01,
            "muteHitText": false
          },
          "forceCameraShake": true,
          "cameraShake": {
            "shakeType": "CustomVector",
            "shakeRange": 1.0,
            "shakeTime": 1.0,
            "shakeDistance": 25.0,
            "baseOnCamera": true,
            "shakeDir": {
              "x": 0,
              "y": -1,
              "z": 0
            }
          }
        }
      },
      "LaserAttack01_Nearly": {
        "attackPattern": {
          "$type": "ConfigAttackCircle",
          "triggerType": "TriggerNoRepeat",
          "height": 1.5,
          "fanAngle": 160.0,
          "radius": 7,
          "innerRadius": 0,
          "born": {
            "$type": "ConfigBornBySelf",
            "offset": {
              "x": 1.5,
              "y": 0.0,
              "z": 2.5
            },
            "direction": {
              "$type": "ConfigDirectionByEntity",
              "angleOffset": {
                "x": 0.0,
                "y": -20.0,
                "z": 0.0
              }
            }
          }
        },
        "attackInfo": {
          "attackTag": "Regisvine_Electric_LarserAttack",
          "attackProperty": {
            "damagePercentage": 0.75,
            "strikeType": "Default",
            "attackType": "Range",
            "elementType": "Electric",
            "elementDurability": 30,
            "enBreak": 5000
          },
          "hitPattern": {
            "onHitEffectName": "default",
            "hitImpulseType": "LV4",
            "hitHaltTime": 0.0,
            "hitHaltTimeScale": 0.01,
            "muteHitText": false
          }
        }
      },
      "LaserAttack02_Nearly": {
        "attackPattern": {
          "$type": "ConfigAttackCircle",
          "triggerType": "TriggerNoRepeat",
          "height": 1.5,
          "fanAngle": 160.0,
          "radius": 7,
          "innerRadius": 0.0,
          "born": {
            "$type": "ConfigBornBySelf",
            "offset": {
              "x": 1.5,
              "y": 0.0,
              "z": 2.5
            },
            "direction": {
              "$type": "ConfigDirectionByEntity",
              "angleOffset": {
                "x": 0.0,
                "y": 20.0,
                "z": 0.0
              }
            }
          }
        },
        "attackInfo": {
          "attackTag": "Regisvine_Electric_LarserAttack",
          "attackProperty": {
            "damagePercentage": 0.75,
            "strikeType": "Default",
            "attackType": "Range",
            "elementType": "Electric",
            "elementDurability": 30,
            "enBreak": 5000
          },
          "hitPattern": {
            "onHitEffectName": "default",
            "hitImpulseType": "LV4",
            "hitHaltTime": 0.0,
            "hitHaltTimeScale": 0.01,
            "muteHitText": false
          }
        }
      }
    }
  },
  "inputKeys": [
    {
      "keyID": 201, //1
      "inputKeyCode": 257
    },
    {
      "keyID": 211, //2
      "inputKeyCode": 258
    },
    {
      "keyID": 221, //3
      "inputKeyCode": 259
    },
    {
      "keyID": 231, //4
      "inputKeyCode": 260
    },
    {
      "keyID": 301, //5
      "inputKeyCode": 261
    },
    {
      "keyID": 401, //6
      "inputKeyCode": 262
    },
    {
      "keyID": 411, //7
      "inputKeyCode": 263
    },
    {
      "keyID": 341, //8
      "inputKeyCode": 264
    },
    {
      "keyID": 351, //9
      "inputKeyCode": 265
    }
  ],
  "stateLayers": {
    "defaultLayer": {
      "$type": "ConfigNormalStateLayer",
      "stateIDs": {
        //////////////////////////////////////////////////
        //	Idle & Move states
        //////////////////////////////////////////////////
        "Born": {
          "$type": "ConfigMonsterStateIDInfo",
          "animatorStates": {
            "Born": [""]
          },
          "canDoSkill": true,
          "canSyncMove": true,
          "resetAnimatorTriggerOnExit": ["DoSkill"]
        },
        "NormalIdle": {
          "$type": "ConfigMonsterStateIDInfo",
          "animatorStates": {
            "Standby": []
          },
          "canDoSkill": true,
          "canSyncMove": true,
          //"canSteer": true,
          "autoSteer": false,
          "resetAnimatorTriggerOnExit": ["DoSkill"]
        },
        //////////////////////////////////////////////////
        //	Hit & Die states
        //////////////////////////////////////////////////
        "Die": {
          "$type": "ConfigMonsterStateIDInfo",
          "animatorStates": {
            "Die1": [
              "Monster_Regisvine_Electric_Die",
              "Monster_Regisvine_Electric_Core_End",
              "Audio_Monster_Regisvine_Electric_Die"
            ],
            "FallingDie": ["Monster_Regisvine_Electric_Core_End"],
            "SwimDie": [
              "Monster_Regisvine_Electric_Core_End",
              "Audio_Monster_Regisvine_Electric_Die"
            ],
            "AirDie": [
              "Monster_Regisvine_Electric_Core_End",
              "Audio_Monster_Regisvine_Electric_Die"
            ]
          }
        },
        //////////////////////////////////////////////////
        //	Alert states
        //////////////////////////////////////////////////
        "Alert": {
          "$type": "ConfigMonsterStateIDInfo",
          "animatorStates": {
            "Alert": [
              "Monster_Regisvine_Electric_Alert",
              "Audio_Monster_Regisvine_Electric_Alert"
            ],
            "Warning": [
              "Monster_Regisvine_Electric_Alert",
              "Audio_Monster_Regisvine_Electric_Alert"
            ]
          },
          "addEndure": 0.0,
          "resetAnimatorTriggerOnExit": ["BeHit", "DoSkill"]
        },
        //////////////////////////////////////////////////
        //	Other states  "Monster_Regisvine_Fire_ReturnToBorn", "Regisvine_Fire_EndAllGadgets",
        //////////////////////////////////////////////////
        "ReturnToBorn": {
          "$type": "ConfigMonsterStateIDInfo",
          "animatorStates": {
            "ReturnToBorn": ["Audio_Monster_Regisvine_Electric_ReturnToBorn"]
          },
          "canDoSkill": true,
          "resetAnimatorTriggerOnExit": ["ReturnToBornTrigger"]
        },
        //////////////////////////////////////////////////
        //	Faint states
        //////////////////////////////////////////////////
        "Faint_BS": {
          "$type": "ConfigMonsterStateIDInfo",
          "animatorStates": {
            "Faint_BS": [
              "Monster_Regisvine_Electric_Faint_BS",
              "Audio_Monster_Regisvine_Electric_Faint_BS"
            ]
          },
          "canDoSkill": false,
          "canSyncMove": true,
          "resetAnimatorTriggerOnExit": ["DoSkill"]
        },
        "Faint_AS_Anode": {
          "$type": "ConfigMonsterStateIDInfo",
          "animatorStates": {
            "Faint_AS_Anode": [
              "Monster_Regisvine_Electric_Faint_AS_Anode",
              "Audio_Monster_Regisvine_Electric_Faint_Anode_AS"
            ]
          },
          "canDoSkill": false,
          "canSyncMove": true,
          "resetAnimatorTriggerOnExit": ["DoSkill"]
        },
        "Faint_AS_Cathode": {
          "$type": "ConfigMonsterStateIDInfo",
          "animatorStates": {
            "Faint_AS_Cathode": [
              "Monster_Regisvine_Electric_Faint_AS_Cathode",
              "Audio_Monster_Regisvine_Electric_Faint_Cathode_AS"
            ]
          },
          "canDoSkill": false,
          "canSyncMove": true,
          "resetAnimatorTriggerOnExit": ["DoSkill"]
        },
        /////////////////////////////////////////////////////////////////////////////////////////////////////
        //
        //
        //
        //              Anode State  Skill Layer
        //
        //
        //
        /////////////////////////////////////////////////////////////////////////////////////////////////////
        //////////////////////////////////////////////////
        //	Anode State:MeleeAttack_Wave
        //////////////////////////////////////////////////
        "Anode_MeleeAttack_Wave": {
          "$type": "ConfigMonsterStateIDInfo",
          "animatorStates": {
            "Anode_MeleeAttack_Wave_01": [
              "Monster_Regisvine_Electric_Anode_MeleeAttack_Wave",
              "Audio_Monster_Regisvine_Electric_Anode_MeleeAttack_Wave"
            ],
            "Anode_MeleeAttack_Wave_02": [
              "Monster_Regisvine_Electric_Anode_MeleeAttack_Wave",
              "Audio_Monster_Regisvine_Electric_Anode_MeleeAttack_Wave_Attack"
            ],
            "Anode_MeleeAttack_Wave_03": [
              "Monster_Regisvine_Electric_Anode_MeleeAttack_Wave",
              "Audio_Monster_Regisvine_Electric_Anode_MeleeAttack_Wave_Attack"
            ]
          },
          "resetAnimatorTriggerOnExit": ["BeHit", "DoSkill"]
        },
        "Anode_MeleeAttack_Wave_LockOff": {
          "$type": "ConfigMonsterStateIDInfo",
          "animatorStates": {
            "Anode_MeleeAttack_Wave_LockOff_01": [
              "Monster_Regisvine_MeleeAttack_Wave_LockOff",
              ""
            ],
            "Anode_MeleeAttack_Wave_LockOff_02": [
              "Monster_Regisvine_MeleeAttack_Wave_LockOff",
              ""
            ]
          },
          "resetAnimatorTriggerOnExit": ["BeHit", "DoSkill"]
        },
        "Anode_MeleeAttack_Wave_AS": {
          "$type": "ConfigMonsterStateIDInfo",
          "animatorStates": {
            "Anode_MeleeAttack_Wave_Wait": [""],
            "Anode_MeleeAttack_Wave_AS": [
              "Monster_Regisvine_MeleeAttack_Wave_LockOff",
              "Audio_Monster_Regisvine_Electric_Anode_MeleeAttack_Wave_AS"
            ]
          },
          "resetAnimatorTriggerOnExit": ["BeHit", "DoSkill"]
        },
        //////////////////////////////////////////////////
        //	Adone State:MeleeAttack_Combo
        //////////////////////////////////////////////////
        "Anode_MeleeAttackCombo": {
          "$type": "ConfigMonsterStateIDInfo",
          "animatorStates": {
            "Anode_MeleeAttackCombo_BS": [
              "Monster_Regisvine_Electric_Anode_MeleeAttackCombo",
              "Audio_Monster_Regisvine_Electric_Anode_MeleeCombo"
            ],
            "Anode_MeleeAttackCombo_Wait": [
              "Monster_Regisvine_Electric_Anode_MeleeAttackCombo"
            ],
            "Anode_MeleeAttackCombo_AS": [
              "Monster_Regisvine_Electric_Anode_MeleeAttackCombo",
              "Audio_Monster_Regisvine_Electric_Anode_MeleeCombo_AS"
            ]
          },
          "canSteer": true,
          "resetAnimatorTriggerOnExit": ["BeHit", "DoSkill"]
        },
        "LaserAttack_03": {
          "$type": "ConfigMonsterStateIDInfo",
          "animatorStates": {
            "LaserAttack_03": [
              "Monster_Regisvine_Electric_LarseAttack_03",
              "Audio_Monster_Regisvine_Electric_Anode_LaserAttack_03"
            ]
          },
          "canDoSkill": false,
          "canSyncMove": true,
          "resetAnimatorTriggerOnExit": ["DoSkill"]
        },
        "LaserAttack_01_Near": {
          "$type": "ConfigMonsterStateIDInfo",
          "animatorStates": {
            "LaserAttack_01_Near": [
              "Monster_Regisvine_Electric_LarseAttack_01_Near",
              "Audio_Monster_Regisvine_Electric_Anode_LaserAttack_01"
            ]
          },
          "canDoSkill": false,
          "canSyncMove": true,
          "resetAnimatorTriggerOnExit": ["DoSkill"]
        },
        "LaserAttack_02_Near": {
          "$type": "ConfigMonsterStateIDInfo",
          "animatorStates": {
            "LaserAttack_02_Near": [
              "Monster_Regisvine_Electric_LarseAttack_02_Near",
              "Audio_Monster_Regisvine_Electric_Anode_LaserAttack_02"
            ]
          },
          "canDoSkill": false,
          "canSyncMove": true,
          "resetAnimatorTriggerOnExit": ["DoSkill"]
        },
        //////////////////////////////////////////////////
        // Anode_MeleeAttack_L & R
        //////////////////////////////////////////////////
        "Anode_MeleeAttack_L": {
          "$type": "ConfigMonsterStateIDInfo",
          "animatorStates": {
            "Anode_MeleeAttack_L": [
              "Monster_Regisvine_Electric_Anode_MeleeAttack_L",
              "Audio_Monster_Regisvine_Electric_Cathode_MeleeAttack"
            ]
          },
          "canSteer": true,
          "followAnimRotation": true,
          "resetAnimatorTriggerOnExit": ["BeHit", "DoSkill"]
        },
        "Anode_MeleeAttack_R": {
          "$type": "ConfigMonsterStateIDInfo",
          "animatorStates": {
            "Anode_MeleeAttack_R": [
              "Monster_Regisvine_Electric_Anode_MeleeAttack_R",
              "Audio_Monster_Regisvine_Electric_Cathode_MeleeAttack"
            ]
          },
          "canSteer": true,
          "followAnimRotation": true,
          "resetAnimatorTriggerOnExit": ["BeHit", "DoSkill"]
        },
        /////////////////////////////////////////////////////////////////////////////////////////////////////
        //
        //
        //
        //              Cathode State  skill Layer
        //
        //
        //
        /////////////////////////////////////////////////////////////////////////////////////////////////////
        //////////////////////////////////////////////////
        //	Cathode State:MeleeAttack02
        //////////////////////////////////////////////////
        "Cathonde_MeleeAttack02": {
          "$type": "ConfigMonsterStateIDInfo",
          "animatorStates": {
            "Cathonde_MeleeAttack02_BS": [
              "Monster_Regisvine_Electric_MeleeAttack02_Cathode",
              "Audio_Monster_Regisvine_Electric_Anode_MeleeCombo"
            ],
            "Cathonde_MeleeAttack02_AS": [
              "Monster_Regisvine_Electric_MeleeAttack02_Cathode",
              "Audio_Monster_Regisvine_Electric_Anode_MeleeCombo_AS"
            ]
          },
          "resetAnimatorTriggerOnExit": ["BeHit", "DoSkill"]
        },
        //////////////////////////////////////////////////
        //	Cathode State:MeleeAttack_Wave
        //////////////////////////////////////////////////
        "Cathode_MeleeAttack_Wave": {
          "$type": "ConfigMonsterStateIDInfo",
          "animatorStates": {
            "Cathode_MeleeAttack_Wave": [
              "Monster_Regisvine_Electric_Cathode_MeleeAttack_Wave",
              "Audio_Monster_Regisvine_Electric_Anode_MeleeAttack_Wave"
            ]
          },
          "resetAnimatorTriggerOnExit": ["BeHit", "DoSkill"]
        },
        "Cathonde_MeleeAttack_L": {
          "$type": "ConfigMonsterStateIDInfo",
          "animatorStates": {
            "Cathonde_MeleeAttack_L": [
              "Monster_Regisvine_Electric_Cathode_MeleeAttack_L",
              "Audio_Monster_Regisvine_Electric_Cathode_MeleeAttack"
            ]
          },
          "canSteer": true,
          "followAnimRotation": true,
          "resetAnimatorTriggerOnExit": ["BeHit", "DoSkill"]
        },
        "Cathonde_MeleeAttack_R": {
          "$type": "ConfigMonsterStateIDInfo",
          "animatorStates": {
            "Cathonde_MeleeAttack_R": [
              "Monster_Regisvine_Electric_Cathode_MeleeAttack_R",
              "Audio_Monster_Regisvine_Electric_Cathode_MeleeAttack"
            ]
          },
          "canSteer": true,
          "followAnimRotation": true,
          "resetAnimatorTriggerOnExit": ["BeHit", "DoSkill"]
        },
        "Cathonde_MeleeAttack_Range": {
          "$type": "ConfigMonsterStateIDInfo",
          "animatorStates": {
            "Cathonde_MeleeAttack_Range": [""]
          },
          "canSteer": true,
          "followAnimRotation": true,
          "resetAnimatorTriggerOnExit": ["BeHit", "DoSkill"]
        },
        //////////////////////////////////////////////////
        // Cathode ThunderSeed
        //////////////////////////////////////////////////
        "Cathode_ThunderSeed_AS": {
          "$type": "ConfigMonsterStateIDInfo",
          "animatorStates": {
            "Cathode_ThunderSeed_AS": [
              "Audio_Monster_Regisvine_Electric_Cathode_ThunderSeed_AS"
            ]
          },
          "canDoSkill": false,
          "canSyncMove": true,
          "resetAnimatorTriggerOnExit": ["DoSkill"]
        },
        "Cathode_ThunderSeed_Loop": {
          "$type": "ConfigMonsterStateIDInfo",
          "animatorStates": {
            "Cathode_ThunderSeed_Loop": [
              "Monster_Regisvine_Electric_ThunaderAttack_Loop"
            ]
          },
          "canDoSkill": false,
          "canSyncMove": true,
          "resetAnimatorTriggerOnExit": ["DoSkill"]
        },
        "Cathode_ThunderSeed_BS": {
          "$type": "ConfigMonsterStateIDInfo",
          "animatorStates": {
            "Cathode_ThunderSeed_BS": [
              "Audio_Monster_Regisvine_Electric_Cathode_ThunderSeed_BS"
            ]
          },
          "canDoSkill": false,
          "canSyncMove": true,
          "resetAnimatorTriggerOnExit": ["DoSkill"]
        },
        //////////////////////////////////////////////////
        //	RangeAttack states
        //////////////////////////////////////////////////
        "Cathode_RangeAttack_BS": {
          "$type": "ConfigMonsterStateIDInfo",
          "animatorStates": {
            "Cathode_RangeAttack_BS": [
              "Audio_Monster_Regisvine_Electric_Cathode_RangeAttack_BS"
            ]
          },
          "canDoSkill": false,
          "canSyncMove": true,
          "resetAnimatorTriggerOnExit": ["DoSkill"]
        },
        "Cathode_RangeAttack_Loop": {
          "$type": "ConfigMonsterStateIDInfo",
          "animatorStates": {
            "Cathode_RangeAttack_Loop": [
              "Monster_Regisvine_Electric_Cathode_RangeAttack",
              "Audio_Monster_Regisvine_Electric_Cathode_RangeAttack_Loop"
            ]
          },
          "canDoSkill": false,
          "canSyncMove": true,
          "resetAnimatorTriggerOnExit": ["DoSkill"]
        },
        "Cathode_RangeAttack_AS": {
          "$type": "ConfigMonsterStateIDInfo",
          "animatorStates": {
            "Cathode_RangeAttack_AS": [
              "Audio_Monster_Regisvine_Electric_Cathode_RangeAttack_AS"
            ]
          },
          "canDoSkill": false,
          "canSyncMove": true,
          "resetAnimatorTriggerOnExit": ["DoSkill"]
        },
        //////////////////////////////////////////////////
        //	Cathode_ThunderNet
        //////////////////////////////////////////////////
        "Cathode_ThunderNet": {
          "$type": "ConfigMonsterStateIDInfo",
          "animatorStates": {
            "Cathode_ThunderNet": [
              "Monster_Regisvine_Electric_Cathode_ThunderNet"
            ]
          },
          "canDoSkill": false,
          "canSyncMove": true,
          "resetAnimatorTriggerOnExit": ["DoSkill"]
        },
        //////////////////////////////////////////////////
        //	Revenge states
        //////////////////////////////////////////////////
        "RevengeAttack": {
          "$type": "ConfigMonsterStateIDInfo",
          "animatorStates": {
            "RevengeAttack": [
              "Monster_Regisvine_Fire_RevengeAttack",
              "Audio_Monster_Regisvine_Fire_RevengeAtk"
            ]
          },
          "canSteer": true,
          "followAnimRotation": true,
          "resetAnimatorTriggerOnExit": ["BeHit", "DoSkill"]
        },
        //////////////////////////////////////////////////
        //	Swtich State
        //////////////////////////////////////////////////
        "Anode_Switch": {
          "$type": "ConfigMonsterStateIDInfo",
          "animatorStates": {
            "Anode_Switch": [
              "Monster_Regisvine_Electric_Swtich_Anode",
              "Audio_Monster_Regisvine_Electric_Switch_Cathode"
            ]
          },
          "canDoSkill": false,
          "canSyncMove": true,
          "resetAnimatorTriggerOnExit": ["DoSkill"]
        },
        "Cathode_Switch": {
          "$type": "ConfigMonsterStateIDInfo",
          "animatorStates": {
            "Cathode_Switch": [
              "Monster_Regisvine_Electric_Swtich_Cathode",
              "Audio_Monster_Regisvine_Electric_Switch_Anode"
            ]
          },
          "canDoSkill": false,
          "canSyncMove": true,
          "resetAnimatorTriggerOnExit": ["DoSkill"]
        }
      }
    }
  },
  "abilities": [
    //////////////////////////////////////////////////
    //	Common abilities
    //////////////////////////////////////////////////
    {
      "abilityID": "AlertLogic",
      "abilityName": "Monster_Regisvine_Electric_AlertLogic"
    },
    {
      "abilityID": "FreeState",
      "abilityName": "Monster_Regisvine_Electric_StateControl"
    },
    {
      "abilityID": "Faint_ShaderChange",
      "abilityName": "Regisvine_Electric_Faint_ShaderChange"
    },
    {
      "abilityID": "DamageManager",
      "abilityName": "Monster_Regisvine_Electric_DamageManager"
    },
    {
      "abilityID": "FruitCoverManager",
      "abilityName": "Monster_Regisvine_FruitCoverManager"
    },
    {
      "abilityID": "SteerAttack",
      "abilityName": "Monster_Regisvine_Electric_SteerAttack"
    },
    {
      "abilityID": "ReturnToBorn",
      "abilityName": "Monster_Regisvine_Electric_ReturnToBorn"
    },
    {
      "abilityID": "UsingSkillManager",
      "abilityName": "Monster_Regisvine_UsingSkillManager"
    },
    {
      "abilityID": "TriggerUseSkill",
      "abilityName": "Monster_Regisvine_TriggerUseSkill"
    },
    {
      "abilityID": "StateManager",
      "abilityName": "Monster_Regisvine_Electric_StateManager"
    },
    {
      "abilityID": "BeHitEffect",
      "abilityName": "Monster_Regisvine_Electric_BeHitEffect"
    },
    {
      "abilityID": "DieEffect",
      "abilityName": "Monster_Regisvine_Electric_DieEffect"
    },
    {
      "abilityID": "FaintGV",
      "abilityName": "Monster_Regisvine_Electric_Faint_GV"
    },
    {
      "abilityID": "ColliderOn",
      "abilityName": "Monster_Regisvine_LarseAttack_ColliderOn"
    },
    {
      "abilityID": "ColliderOff",
      "abilityName": "Monster_Regisvine_LarseAttack_ColliderOff"
    },
    //////////////////////////////////////////////////
    //	Alert abilities Common
    //////////////////////////////////////////////////
    {
      "abilityID": "HitboxInitialization",
      "abilityName": "Monster_Regisvine_HitboxInitialization"
    },
    {
      "abilityID": "Alert_TriggerShaderEffect",
      "abilityName": "Monster_Regisvine_Alert_TriggerShaderEffect"
    },
    //////////////////////////////////////////////////
    //	FlowerLockable abilities 头部HitBox开关
    //////////////////////////////////////////////////
    {
      "abilityID": "FlowerLockableOn",
      "abilityName": "Monster_Regisvine_FlowerLockableOn"
    },
    {
      "abilityID": "FlowerLockableOff",
      "abilityName": "Monster_Regisvine_FlowerLockableOff"
    },
    //////////////////////////////////////////////////
    //	PushCollider abilities  开关碰撞
    //////////////////////////////////////////////////
    {
      "abilityID": "FlowerPushColliderOn",
      "abilityName": "Monster_Regisvine_FlowerPushColliderOn"
    },
    {
      "abilityID": "FlowerPushColliderOff",
      "abilityName": "Monster_Regisvine_FlowerPushColliderOff"
    },
    {
      "abilityID": "FaintPushColliderOn",
      "abilityName": "Monster_Regisvine_FaintPushColliderOn"
    },
    {
      "abilityID": "FaintPushColliderOff",
      "abilityName": "Monster_Regisvine_FaintPushColliderOff"
    },
    //////////////////////////////////////////////////
    //	Faint abilities 倒地
    //////////////////////////////////////////////////
    {
      "abilityID": "Faint_Cathode",
      "abilityName": "Monster_Regisvine_Electric_Faint_Cathode"
    },
    {
      "abilityID": "Faint_Anode",
      "abilityName": "Monster_Regisvine_Electric_Faint_Anode"
    },
    {
      "abilityID": "Faint_Recover",
      "abilityName": "Monster_Regisvine_Electric_Faint_Recover"
    },
    //////////////////////////////////////////////////
    //	Core abilities  弱点配置
    //////////////////////////////////////////////////
    {
      "abilityID": "Core_Begin",
      "abilityName": "Regisvine_Electric_Core_Begin"
    },
    {
      "abilityID": "Core_Open",
      "abilityName": "Regisvine_Electric_Core_Open"
    },
    {
      "abilityID": "Core_Close",
      "abilityName": "Regisvine_Electric_Core_Close"
    },
    {
      "abilityID": "Core_End",
      "abilityName": "Regisvine_Electric_Core_End"
    },
    {
      "abilityID": "Core_Change",
      "abilityName": "Regisvine_Electric_Core_Change"
    },
    //////////////////////////////////////////////////
    //	PartControl abilities  底部一直朝向空GADGET位置
    //////////////////////////////////////////////////
    {
      "abilityID": "CreateBaseControlTarget",
      "abilityName": "Monster_Regisvine_CreateBaseControlTarget"
    },
    {
      "abilityID": "PartControlTarget_Enable",
      "abilityName": "Regisvine_PartControlTarget_Enable"
    },
    {
      "abilityID": "PartControlTarget_Disable",
      "abilityName": "Regisvine_PartControlTarget_Disable"
    },
    /////////////////////////////////////////////////////////////////////////////////////
    //
    //
    //  Anode Skill  abilities
    //
    //
    /////////////////////////////////////////////////////////////////////////////////////
    {
      "abilityID": "Anode_MeleeAttack_Wave",
      "abilityName": "Monster_Regisvine_Anode_MeleeAttack_Wave"
    },
    /////////////////////////////////////////////////////////////////////////////////////
    //
    //
    //  Cathode Sskill  abilities
    //
    //
    /////////////////////////////////////////////////////////////////////////////////////
    {
      "abilityID": "Cathode_MeleeAttack_Wave",
      "abilityName": "Monster_Regisvine_Cathode_MeleeAttack_Wave"
    },
    {
      "abilityID": "RangeAttack_L_Cathode",
      "abilityName": "Monster_Regisvine_RangeAttack_L_Cathode"
    },
    {
      "abilityID": "RangeAttack_R_Cathode",
      "abilityName": "Monster_Regisvine_RangeAttack_R_Cathode"
    },
    {
      "abilityID": "ThunaderAttack",
      "abilityName": "Monster_Regisvine_ThunaderAttack"
    },
    //////////////////////////////////////////////////
    //	Attack abilities
    //////////////////////////////////////////////////
    {
      "abilityID": "Monster_Regisvine_LarseAttack_ThunderBlizzard",
      "abilityName": "Monster_Regisvine_LarseAttack_ThunderBlizzard"
    },
    {
      "abilityID": "hunderBlizzardEffect",
      "abilityName": "Monster_Regisvine_LarseAttack_ThunderBlizzardEffect"
    },
    //////////////////////////////////////////////////
    //	Swtich abilities
    //////////////////////////////////////////////////
    {
      "abilityID": "Switch_Management",
      "abilityName": "Monster_Regisvine_Switch_Management"
    },
    {
      "abilityID": "Switch_Anode",
      "abilityName": "Monster_Regisvine_Switch_Anode"
    },
    {
      "abilityID": "Charge_Anode",
      "abilityName": "Monster_Regisvine_Switch_Charge_Anode"
    },
    {
      "abilityID": "Switch_Cathode",
      "abilityName": "Monster_Regisvine_Switch_Cathode"
    },
    {
      "abilityID": "Charge_Cathode",
      "abilityName": "Monster_Regisvine_Switch_Charge_Cathode"
    }
  ],
  "initialPoses": {
    "Default": {
      "initialPoseID": 1
    },
    "NoSensing": {
      "initialPoseID": 2,
      "initialPoseParams": {
        "boolParams": {
          "NoSensing": "true"
        }
      }
    },
    "AlertedFree": {
      "initialPoseID": 3,
      "initialPoseParams": {
        "boolParams": {
          "Alerted": "true"
        }
      }
    }
  },
  "aibeta": {
    "enable": true,
    "skillGCD": 3,
    "skillSetting": {
      "skillEliteSet": {
        "1": [502]
      }
    },
    "neurons": {
      "DefaultSetting": ["HIT"]
    },
    "sensing": {
      "settings": {
        "DefaultSetting": {
          "viewRange": 22.0,
          "feelRange": 22.0
        },
        "NoSensing": {
          "viewRange": 0.0,
          "feelRange": 0.0,
          "hearAttractionRange": 0.0
        }
      },
      "templates": {
        "DefaultTemplate": {
          "DefaultPoses": "DefaultSetting",
          "2": "NoSensing",
          "3": "NoSensing"
        }
      }
    },
    "defendArea": {
      "defendRange": 24.0 //只用defendRange判定进出战
    },
    "threat": {
      "clearThreatByTargetOutOfZone": true,
      "clearThreatTimerByTargetOutOfZone": 1,
      "clearThreatTargetDistance": 24.0,
      "clearThreatTimerByDistance": 1.75,
      "clearThreatEdgeDistance": 7.5,
      "viewThreatGrow": 35.0,
      "feelThreatGrow": 100.0,
      "threatDecreaseSpeed": 10.0,
      "resistTauntLevel": "Monster_TauntLevel_4"
    },
    "returnToBornTactic": {
      "enable": true,
      "defaultSetting": {
        "speedLevel": 0,
        "fadeoutBeginTime": 1.0,
        "fadeoutEndTime": 1.5
      }
    },
    "followScriptedPathTactic": {
      "enable": true,
      "defaultSetting": {
        "turnSpeedOverrideWalk": 0.5,
        "turnSpeedOverrideRun": 0.5
      }
    },
    "wanderTactic": {
      "enable": true,
      "condition": {
        "pose": [100, 300]
      },
      "defaultSetting": {
        "speedLevel": 1,
        "turnSpeedOverride": 0.2,
        "cdMin": 0.0,
        "cdMax": 0.0,
        "distanceFromBorn": 25.0,
        "distanceFromCurrentMin": 7.5,
        "distanceFromCurrentMax": 10.0
      }
    },
    "network": {
      "syncSkill": true,
      "resetHpOnSpawn": true
    },
    "skillGroupCDConfigs": [
      {
        //Core
        "skillGroupCDID": 1,
        "skillGroupCDTime": 1.5
      },
      {
        //Fruit
        "skillGroupCDID": 2,
        "skillGroupCDTime": 1
      },
      {
        //Fruit
        "skillGroupCDID": 3,
        "skillGroupCDTime": 3.0
      },
      {
        //Swtich
        "skillGroupCDID": 4,
        "skillGroupCDTime": 2.5
      }
    ],
    "skills": {
      //////////////////////////////////////////////////
      //	Alert Skills
      //////////////////////////////////////////////////
      "101": {
        "name": "OnAlert",
        "stateIDs": ["Alert"],
        "skillType": "OnAlert",
        "skillQueryingTime": 3,
        "triggerGCD": false,
        "ignoreGCD": true,
        "castCondition": {
          "pose": [1, 2]
        }
        // "faceTarget": true,
      },
      //////////////////////////////////////////////////
      //	Anode State Skills 201 ~ 299
      //////////////////////////////////////////////////
      //砸地攻击[单次]
      "201": {
        "cd": 6.0,
        "cdUpperRange": 0.0,
        "initialCD": 0.0,
        "triggerGCD": false,
        "ignoreGCD": false,
        "skillGroupCDID": 4,
        "flagTargetReachable": "11",
        "combatSkillType": "Unclassified",
        "name": "Anode_MeleeAttack_Wave",
        "stateIDs": [
          "Anode_MeleeAttack_Wave",
          "Anode_MeleeAttack_Wait",
          "Anode_MeleeAttack_AS"
        ],
        "castCondition": {
          "pickRangeMin": 0.0,
          "pickRangeMax": 25.0,
          "castRangeMin": 0.0,
          "castRangeMax": 25.0,
          "pose": [1001]
        }
      },
      //连续头槌
      "211": {
        "cd": 15.0,
        "cdUpperRange": 0.0,
        "initialCD": 10.0,
        "skillGroupCDID": 4,
        "triggerGCD": false,
        "ignoreGCD": false,
        "flagTargetReachable": "11",
        "combatSkillType": "Unclassified",
        "name": "Anode_MeleeAttack_Wave_Combo",
        "stateIDs": [
          "Anode_MeleeAttack_Wave",
          "Anode_MeleeAttack_Wait",
          "Anode_MeleeAttack_AS"
        ],
        "castCondition": {
          "pickRangeMin": 8.0,
          "pickRangeMax": 99.0,
          "castRangeMin": 8.0,
          "castRangeMax": 99.0,
          // "maxTargetAngleXZ": 90,
          "pose": [1001]
        }
      },
      //近战攻击  L + R + 头槌
      "221": {
        "priority": 2,
        "cd": 15,
        "initialCD": 3.0,
        "triggerGCD": false,
        "ignoreGCD": false,
        "skillGroupCDID": 1, //Melee Attack GroupCD
        "initialCDUpperRange": 5,
        "flagTargetReachable": "11",
        "combatSkillType": "Unclassified", //Melee Attack GroupCD
        "name": "Anode_MeleeAttackCombo",
        "stateIDs": ["Anode_MeleeAttackCombo"],
        "castCondition": {
          "pickRangeMin": 0.0,
          "pickRangeMax": 12.0,
          "castRangeMin": 0.0,
          "castRangeMax": 12.0,
          "pose": [1001]
        }
      },
      // 喷射激光
      "231": {
        "priority": 2,
        "cd": 25.0,
        "initialCD": 3.0,
        "initialCDUpperRange": 3,
        "skillGroupCDID": 1, //Melee Attack GroupCD
        "triggerGCD": false,
        "ignoreGCD": false,
        "flagTargetReachable": "11",
        "flagSelfOnTemplateCollider": "11",
        "combatSkillType": "Unclassified",
        "name": "BreathAttack",
        "stateIDs": [
          "LaserAttack_01_Near",
          "LaserAttack_02_Near",
          "LaserAttack_03"
        ],
        "castCondition": {
          "pickRangeMin": 0,
          "pickRangeMax": 12.0,
          "castRangeMin": 0,
          "castRangeMax": 12.0,
          "pose": [1001]
        }
      },
      //快速调整朝向
      "241": {
        "cd": 6,
        "initialCD": 1.0,
        "triggerGCD": false,
        "ignoreGCD": true,
        "priority": 2,
        "flagTargetReachable": "11",
        "combatSkillType": "Unclassified",
        "name": "Anode_MeleeAttack_L",
        "stateIDs": ["Anode_MeleeAttack_L", "Anode_MeleeAttack_R"],
        "castCondition": {
          "pickRangeMin": 0.0,
          "pickRangeMax": 100.0,
          "castRangeMin": 0.0,
          "castRangeMax": 100.0,
          "minTargetAngleXZ": 90,
          "maxTargetAngleXZ": 180,
          "pose": [1001]
        }
      },
      /////////////////////////////////////////////////
      //	Cathonde State Skills 301 ~ 399
      //////////////////////////////////////////////////
      //头槌
      "301": {
        "cd": 6.0,
        "cdUpperRange": 0.0,
        "initialCD": 5.0,
        "skillGroupCDID": 2, //Ranged Attack GroupCD
        "triggerGCD": false,
        "ignoreGCD": false,
        "flagTargetReachable": "11",
        "combatSkillType": "Unclassified",
        "name": "Cathode_MeleeAttack_Wave",
        "stateIDs": ["Cathode_MeleeAttack_Wave"],
        "castCondition": {
          "pickRangeMin": 0,
          "pickRangeMax": 99.0,
          "castRangeMin": 0.0,
          "castRangeMax": 99.0,
          "pose": [1011]
        }
      },
      //近战攻击，根据朝向攻击
      "311": {
        "cd": 6,
        "initialCD": 10.0,
        "skillGroupCDID": 2, //Ranged Attack GroupCD
        "triggerGCD": false,
        "ignoreGCD": true,
        "priority": 2,
        "flagTargetReachable": "11",
        "combatSkillType": "Unclassified",
        "name": "Cathonde_MeleeAttack_L",
        "stateIDs": ["Cathonde_MeleeAttack_L", "Cathonde_MeleeAttack_R"],
        "castCondition": {
          "pickRangeMin": 0.0,
          "pickRangeMax": 100.0,
          "castRangeMin": 0.0,
          "castRangeMax": 100.0,
          "minTargetAngleXZ": 90,
          "maxTargetAngleXZ": 180,
          "pose": [1011]
        }
      },
      //近战三连
      "331": {
        "cd": 15,
        "initialCD": 10.0,
        "triggerGCD": true,
        "ignoreGCD": false,
        "priority": 2,
        "flagTargetReachable": "11",
        "combatSkillType": "Unclassified",
        "name": "Cathonde_MeleeAttack02",
        "stateIDs": ["Cathonde_MeleeAttack02"],
        "castCondition": {
          "pickRangeMin": 0.0,
          "pickRangeMax": 12.0,
          "castRangeMin": 0.0,
          "castRangeMax": 12.0,
          "pose": [1011]
        }
      },
      //引雷 半场AOE,创建Gadget
      "341": {
        "cd": 15.0,
        "cdUpperRange": 3,
        "initialCD": 5.0,
        "triggerGCD": false,
        "ignoreGCD": false,
        "skillGroupCDID": 2, //Range groupCD
        "flagTargetReachable": "11",
        "flagSelfOnTemplateCollider": "11",
        "combatSkillType": "Unclassified",
        "name": "ThunderSeed",
        "stateIDs": [
          "Cathode_ThunderSeed_BS",
          "Cathode_ThunderSeed_Loop",
          "Cathode_ThunderSeed_AS"
        ],
        "castCondition": {
          "pickRangeMin": 0,
          "pickRangeMax": 99.0,
          "castRangeMin": 0.0,
          "castRangeMax": 99.0,
          "pose": [1011]
        }
      },
      //雷弹追踪
      "351": {
        "cd": 7.0,
        "cdUpperRange": 3.0,
        "triggerGCD": false,
        "ignoreGCD": false,
        "skillGroupCDID": 2, //Range groupCD
        "flagTargetReachable": "11",
        "flagSelfOnTemplateCollider": "11",
        "combatSkillType": "Unclassified",
        "name": "RangeAttack",
        "stateIDs": [
          "Cathode_RangeAttack_BS",
          "Cathode_RangeAttack_Loop",
          "Cathode_RangeAttack_AS"
        ],
        "castCondition": {
          "pickRangeMin": 0,
          "pickRangeMax": 99.0,
          "castRangeMin": 0,
          "castRangeMax": 99.0,
          "pose": [1011]
        }
      },
      //////////////////////////////////////////////////
      //	Swtich State 401 ~ 499
      //////////////////////////////////////////////////
      "401": {
        "priority": 1,
        "cd": 24,
        "initialCD": 24.0,
        "ignoreGCD": true,
        "triggerGCD": true,
        "flagTargetReachable": "11",
        "flagSelfOnTemplateCollider": "11",
        "combatSkillType": "Unclassified",
        "name": "Anode_Switch",
        "stateIDs": ["Anode_Switch"],
        "triggerCDOnStart": true,
        "castCondition": {
          "pose": [1001]
        }
      },
      "411": {
        "priority": 1,
        "cd": 30,
        "initialCD": 30.0,
        "ignoreGCD": true,
        "triggerGCD": true,
        "flagTargetReachable": "11",
        "flagSelfOnTemplateCollider": "11",
        "combatSkillType": "Unclassified",
        "name": "Cathode_Switch",
        "stateIDs": ["Cathode_Switch"],
        "triggerCDOnStart": true,
        "castCondition": {
          "pose": [1011]
        }
      },
      //////////////////////////////////////////////////
      //	Recover Skills 501~599
      //////////////////////////////////////////////////
      //复苏攻击
      "501": {
        "priority": 1,
        "cd": 24.0,
        "initialCD": 24.0,
        "flagTargetReachable": "11",
        "flagSelfOnTemplateCollider": "11",
        "combatSkillType": "Unclassified",
        "name": "FaintRecover",
        "stateIDs": ["Faint_AS_Cathode", "Faint_AS_Anode"],
        "triggerCDOnStart": true,
        "castCondition": {
          "pickRangeMin": 0.0,
          "pickRangeMax": 9999.0,
          "castRangeMin": 0.0,
          "castRangeMax": 9999.0,
          "pose": [2001, 2011]
        }
      },
      //复苏攻击,爬塔专供
      "502": {
        "priority": 1,
        "cd": 18.0,
        "initialCD": 18.0,
        "flagTargetReachable": "11",
        "flagSelfOnTemplateCollider": "11",
        "combatSkillType": "Unclassified",
        "name": "FaintRecover",
        "stateIDs": ["Faint_AS_Cathode", "Faint_AS_Anode"],
        "triggerCDOnStart": true,
        "castCondition": {
          "pickRangeMin": 0.0,
          "pickRangeMax": 9999.0,
          "castRangeMin": 0.0,
          "castRangeMax": 9999.0,
          "pose": [2001, 2011]
        }
      }
    }
  }
}
