{
  "$type": "ConfigMonster",
  "common": {
    "mass": 20.0,
    "height": 0.8,
    "affectedByWorld": true,
    "checkInSurface": true,
    "scale": 1,
    "viewSize": 1,
    "effectAttachShape": {
      "$type": "ConfigEffectAttachSkinnedMesh",
      "mesh": "EffectMesh"
    },
    "canTriggerElementReactionText": false,
    "clearAIOnSetLightDeactive": true,
    "clearAnimatorOnSetLightDeactive": true,
    "recoverByInitPose": true
  },
  "animal": {
    "hasAbility": false,
    "tickAbilityElement": false,
    "hasCharacterRenderering": false
  },
  "model": {
    "canBakeMesh": false
  },
  "combat": {
    "property": {
      "weight": 30,
      "endureType": "Monster_Minion",
      "isInvincible": true
    },
    "combatLock": {
      "denyLockOn": true
    },
    "beHit": {
      "hitBloodEffect": "",
      "muteAllHit": false,
      "muteAllHitEffect": false,
      "muteAllHitText": true
    },
    "die": {
      "dieDisappearEffect": "Eff_Animal_Common_Die",
      "dieEndTime": 0.01,
      "dieForceDisappearTime": 10,
      "useRagDoll": false
    }
  },
  "move": {
    "$type": "ConfigAnimatorMove",
    "moveOnGround": false,
    "moveOnWater": true,
    "moveOnWaterDepth": 0.5
  },
  "stateLayers": {
    "defaultLayer": {
      "$type": "ConfigNormalStateLayer",
      "stateIDs": {
        "Born": {
          "$type": "ConfigMonsterStateIDInfo",
          "animatorStates": {
            "Born": []
          },
          "resetAnimatorTriggerOnExit": ["DoSkill"]
        },
        "NormalIdle": {
          "$type": "ConfigMonsterStateIDInfo",
          "animatorStates": {
            "Standby": []
          },
          "canDoSkill": false,
          "canSyncMove": true,
          "resetAnimatorTriggerOnExit": ["DoSkill"]
        },
        "NormalMove": {
          "$type": "ConfigMonsterStateIDInfo",
          "animatorStates": {
            "Walk": ["Animal_Fishable_Maritime_Walk"],
            "Run": ["Animal_Fishable_Maritime_Run"],
            "PoseAdjust": []
          },
          "canDoSkill": false,
          "canSteer": true,
          "canSyncMove": true,
          "resetAnimatorTriggerOnExit": ["DoSkill"]
        },
        "Turn": {
          "$type": "ConfigMonsterStateIDInfo",
          "animatorStates": {
            "Turn_Walk": ["Animal_Fishable_Maritime_Walk"],
            "Turn_Run": ["Animal_Fishable_Maritime_Turn_Run"]
          },
          "canDoSkill": false,
          "canSteer": true,
          "canSyncMove": true,
          "resetAnimatorTriggerOnExit": ["DoSkill"]
        },
        "BeHit": {
          "$type": "ConfigMonsterStateIDInfo",
          "animatorStates": {
            "Hit_L": []
          },
          "resetAnimatorTriggerOnEnter": ["BeHit"],
          "resetAnimatorTriggerOnExit": ["DoSkill"]
        },
        "Die": {
          "$type": "ConfigMonsterStateIDInfo",
          "animatorStates": {
            "Die": ["Animal_Fish_Die"]
          }
        }
      }
    }
  },
  "initialPoses": {
    "Default": {
      "initialPoseID": 0
    },
    "InFishTank": {
      "initialPoseID": 201,
      "initialPoseParams": {
        "boolParams": {
          "InFishTank": "true"
        }
      }
    }
  },
  "aibeta": {
    "enable": true,
    "friendliness": 1,
    "decisionArchetype": "Animal_Homeworld",
    "profiling": {
      "moveCullingLevel": 3,
      "lodStrategy": "MinorAnimal"
    },
    "sensing": {
      "settings": {
        "DefaultSetting": {
          "enableVision": false,
          "feelRange": 6.5
        },
        "InFishTank": {
          "enableVision": false,
          "feelRange": 0,
          "hearAttractionRange": 7.5,
          "sensitivity": 1
        }
      },
      "templates": {
        "DefaultTemplate": {
          "DefaultPoses": "DefaultSetting",
          "201": "InFishTank"
        }
      }
    },
    "neurons": {
      "DefaultSetting": ["HIT"]
    },
    "defendArea": {
      "defendRange": 14.0
    },
    "moveSetting": {
      "useNavMesh": false,
      "moveCategory": "Water",
      "length": 0.44
    },
    "threat": {
      "viewThreatGrow": 75,
      "feelThreatGrow": 1000,
      "clearThreatByTargetOutOfZone": true,
      "clearThreatTimerByTargetOutOfZone": 1.0,
      "clearThreatTargetDistance": 10,
      "clearThreatTimerByDistance": 0.8,
      "threatBroadcastRange": 5
    },
    "returnToBornTactic": {
      "enable": false
    },
    "ui": {
      "hasDirectionIndicator": false
    },
    "wanderTactic": {
      "enable": true,
      "threatLevelLimit": [0, 1, 2],
      "defaultSetting": {
        "turnSpeedOverride": 0.5,
        "speedLevel": 1,
        "cdMin": 0,
        "cdMax": 0,
        "distanceFromBorn": 20.0,
        "distanceFromCurrentMin": 3.2,
        "distanceFromCurrentMax": 6.4
      },
      "specification": {
        "201": {
          "turnSpeedOverride": 0.4,
          "speedLevel": 1,
          "cdMin": 4,
          "cdMax": 8.5,
          "distanceFromBorn": 5,
          "distanceFromCurrentMin": 0.36,
          "distanceFromCurrentMax": 2
        }
      }
    },
    "fleeTactic": {
      "enable": true,
      "nerveTrigger": ["HIT"],
      "defaultSetting": {
        "turnSpeedOverride": 2.0,
        "speedLevel": 2,
        "cd": 1.0,
        "triggerDistance": 1,
        "fleeAngle": 360,
        "fleeNumberMin": 4,
        "fleeNumberMax": 5,
        "fleeDistanceMin": 0.5,
        "fleeDistanceMax": 2,
        "restrictedByDefendArea": true
      },
      "specification": {
        "201": {
          "turnSpeedOverride": 1.4,
          "speedLevel": 2,
          "cd": 0.4,
          "triggerDistance": 200,
          "fleeAngle": 360,
          "fleeNumberMin": 7,
          "fleeNumberMax": 8,
          "fleeDistanceMin": 0.15,
          "fleeDistanceMax": 0.21,
          "restrictedByDefendArea": true,
          "clearThreatTime": 3.5
        }
      }
    },
    // 鱼缸姿态调整专用战术
    "parallelToTactic": {
      "enable": true,
      "condition": {
        "pose": [201]
      },
      "defaultSetting": {
        "turnSpeedOverride": 0.4,
        "angleOffsetMin": -85,
        "angleOffsetMax": 85
      }
    }
  }
}
